M48
; DRILL file {KiCad (5.1.9)-1} date 03/16/21 20:14:43
; FORMAT={-:-/ absolute / inch / decimal}
; #@! TF.CreationDate,2021-03-16T20:14:43+01:00
; #@! TF.GenerationSoftware,Kicad,Pcbnew,(5.1.9)-1
FMAT,2
INCH
T1C0.0157
T2C0.0394
T3C0.1260
%
G90
G05
T1
X3.7402Y-1.9685
X3.7402Y-2.3622
X3.7402Y-2.7559
X3.7402Y-3.1496
X3.7402Y-4.7244
X3.7402Y-5.1181
X3.7402Y-5.5118
X3.937Y-2.1654
X3.937Y-2.5591
X3.937Y-3.3465
X3.937Y-3.7402
X3.937Y-4.1339
X3.937Y-4.9213
X3.937Y-5.315
X4.0354Y-4.0551
X4.1339Y-1.9685
X4.1339Y-3.5433
X4.1339Y-4.7244
X4.1339Y-5.1181
X4.1339Y-5.5118
X4.252Y-3.7992
X4.3307Y-4.5276
X4.3307Y-4.9213
X4.3307Y-5.315
X4.5276Y-1.9685
X4.5276Y-3.5433
X4.5276Y-3.937
X4.5276Y-4.3307
X4.5276Y-5.1181
X4.5276Y-5.5118
X4.6654Y-4.5945
X4.7244Y-3.7402
X4.7244Y-4.1339
X4.7244Y-4.5276
X4.7244Y-4.9213
X4.7244Y-5.315
X4.9213Y-1.9685
X4.9213Y-3.1496
X4.9213Y-3.5433
X4.9213Y-4.3307
X4.9213Y-4.7244
X4.9213Y-5.5118
X5.1181Y-4.1339
X5.1181Y-4.5276
X5.1181Y-5.315
X5.2165Y-3.0906
X5.2165Y-3.1496
X5.315Y-3.1496
X5.315Y-3.5433
X5.315Y-4.3307
X5.315Y-4.7244
X5.5118Y-4.1339
X5.5118Y-4.5276
X5.5118Y-5.315
X5.7087Y-3.1496
X5.7087Y-3.5433
X5.7087Y-4.3307
X5.7087Y-4.7244
X5.9055Y-4.1339
X5.9055Y-4.5276
X5.9055Y-5.315
X6.1024Y-1.9685
X6.1024Y-3.1496
X6.1024Y-3.5433
X6.1024Y-4.3307
X6.1024Y-4.7244
X6.1024Y-5.5118
X6.2992Y-2.9528
X6.2992Y-4.1339
X6.2992Y-4.5276
X6.2992Y-5.315
X6.4961Y-1.9685
X6.4961Y-3.1496
X6.4961Y-3.5433
X6.4961Y-4.3307
X6.4961Y-4.7244
X6.4961Y-5.5118
X6.6929Y-4.1339
X6.6929Y-4.5276
X6.6929Y-5.315
X6.8898Y-2.3622
X6.8898Y-2.7559
X6.8898Y-3.1496
X6.8898Y-3.5433
X6.8898Y-3.937
X6.8898Y-4.3307
X6.8898Y-4.7244
X6.8898Y-5.1181
X6.8898Y-5.5118
X7.0866Y-2.1654
X7.0866Y-2.5591
X7.0866Y-2.9528
X7.0866Y-3.3465
X7.0866Y-3.7402
X7.0866Y-4.1339
X7.0866Y-4.5276
X7.0866Y-4.9213
X7.0866Y-5.315
T2
X3.85Y-2.875
X3.85Y-2.975
X3.8661Y-4.815
X3.9236Y-4.2441
X3.9661Y-4.815
X4.0Y-2.875
X4.0Y-2.975
X4.0236Y-4.2441
X4.0661Y-4.815
X4.24Y-2.0717
X4.24Y-2.1717
X4.24Y-2.2717
X4.24Y-2.3717
X4.24Y-2.5415
X4.24Y-2.6415
X4.24Y-2.7415
X4.24Y-2.8415
X4.34Y-2.0717
X4.34Y-2.1717
X4.34Y-2.2717
X4.34Y-2.3717
X4.34Y-2.5415
X4.34Y-2.6415
X4.34Y-2.7415
X4.34Y-2.8415
X4.3465Y-4.7953
X4.3543Y-4.2638
X4.44Y-2.0717
X4.44Y-2.1717
X4.44Y-2.2717
X4.44Y-2.3717
X4.44Y-2.5415
X4.44Y-2.6415
X4.44Y-2.7415
X4.44Y-2.8415
X4.4465Y-4.7953
X4.4543Y-4.2638
X4.54Y-2.0717
X4.54Y-2.1717
X4.54Y-2.2717
X4.54Y-2.3717
X4.54Y-2.5415
X4.54Y-2.6415
X4.54Y-2.7415
X4.54Y-2.8415
X4.64Y-2.0717
X4.64Y-2.1717
X4.64Y-2.2717
X4.64Y-2.3717
X4.64Y-2.5415
X4.64Y-2.6415
X4.64Y-2.7415
X4.64Y-2.8415
X4.74Y-2.0717
X4.74Y-2.1717
X4.74Y-2.2717
X4.74Y-2.3717
X4.74Y-2.5415
X4.74Y-2.6415
X4.74Y-2.7415
X4.74Y-2.8415
X4.7638Y-3.2858
X4.7638Y-3.3858
X4.84Y-2.0717
X4.84Y-2.1717
X4.84Y-2.2717
X4.84Y-2.3717
X4.84Y-2.5415
X4.84Y-2.6415
X4.84Y-2.7415
X4.84Y-2.8415
X4.862Y-3.7209
X4.862Y-3.8209
X4.862Y-3.9709
X4.862Y-4.9709
X4.862Y-5.1209
X4.862Y-5.2209
X4.8638Y-3.2858
X4.8638Y-3.3858
X4.94Y-2.0717
X4.94Y-2.1717
X4.94Y-2.2717
X4.94Y-2.3717
X4.94Y-2.5415
X4.94Y-2.6415
X4.94Y-2.7415
X4.94Y-2.8415
X4.962Y-3.7209
X4.962Y-3.8209
X4.962Y-3.9709
X4.962Y-4.9709
X4.962Y-5.1209
X4.962Y-5.2209
X4.9638Y-3.2858
X4.9638Y-3.3858
X5.04Y-2.0717
X5.04Y-2.1717
X5.04Y-2.2717
X5.04Y-2.3717
X5.04Y-2.5415
X5.04Y-2.6415
X5.04Y-2.7415
X5.04Y-2.8415
X5.062Y-3.7209
X5.062Y-3.8209
X5.062Y-3.9709
X5.062Y-4.9709
X5.062Y-5.1209
X5.062Y-5.2209
X5.0638Y-3.2858
X5.0638Y-3.3858
X5.14Y-2.0717
X5.14Y-2.1717
X5.14Y-2.2717
X5.14Y-2.3717
X5.14Y-2.5415
X5.14Y-2.6415
X5.14Y-2.7415
X5.14Y-2.8415
X5.162Y-3.7209
X5.162Y-3.8209
X5.162Y-3.9709
X5.162Y-4.9709
X5.162Y-5.1209
X5.162Y-5.2209
X5.1638Y-3.2858
X5.1638Y-3.3858
X5.24Y-2.0717
X5.24Y-2.1717
X5.24Y-2.2717
X5.24Y-2.3717
X5.24Y-2.5415
X5.24Y-2.6415
X5.24Y-2.7415
X5.24Y-2.8415
X5.262Y-3.7209
X5.262Y-3.8209
X5.262Y-3.9709
X5.262Y-4.9709
X5.262Y-5.1209
X5.262Y-5.2209
X5.2638Y-3.2858
X5.2638Y-3.3858
X5.34Y-2.0717
X5.34Y-2.1717
X5.34Y-2.2717
X5.34Y-2.3717
X5.34Y-2.5415
X5.34Y-2.6415
X5.34Y-2.7415
X5.34Y-2.8415
X5.362Y-3.7209
X5.362Y-3.8209
X5.362Y-3.9709
X5.362Y-4.9709
X5.362Y-5.1209
X5.362Y-5.2209
X5.3638Y-3.2858
X5.3638Y-3.3858
X5.44Y-2.0717
X5.44Y-2.1717
X5.44Y-2.2717
X5.44Y-2.3717
X5.44Y-2.5415
X5.44Y-2.6415
X5.44Y-2.7415
X5.44Y-2.8415
X5.462Y-3.7209
X5.462Y-3.8209
X5.462Y-3.9709
X5.462Y-4.9709
X5.462Y-5.1209
X5.462Y-5.2209
X5.4638Y-3.2858
X5.4638Y-3.3858
X5.54Y-2.0717
X5.54Y-2.1717
X5.54Y-2.2717
X5.54Y-2.3717
X5.54Y-2.5415
X5.54Y-2.6415
X5.54Y-2.7415
X5.54Y-2.8415
X5.562Y-3.7209
X5.562Y-3.8209
X5.562Y-3.9709
X5.562Y-4.9709
X5.562Y-5.1209
X5.562Y-5.2209
X5.5638Y-3.2858
X5.5638Y-3.3858
X5.64Y-2.0717
X5.64Y-2.1717
X5.64Y-2.2717
X5.64Y-2.3717
X5.64Y-2.5415
X5.64Y-2.6415
X5.64Y-2.7415
X5.64Y-2.8415
X5.662Y-3.7209
X5.662Y-3.8209
X5.662Y-3.9709
X5.662Y-4.9709
X5.662Y-5.1209
X5.662Y-5.2209
X5.6638Y-3.2858
X5.6638Y-3.3858
X5.74Y-2.0717
X5.74Y-2.1717
X5.74Y-2.2717
X5.74Y-2.3717
X5.74Y-2.5415
X5.74Y-2.6415
X5.74Y-2.7415
X5.74Y-2.8415
X5.762Y-3.7209
X5.762Y-3.8209
X5.762Y-3.9709
X5.762Y-4.9709
X5.762Y-5.1209
X5.762Y-5.2209
X5.7638Y-3.2858
X5.7638Y-3.3858
X5.84Y-2.0717
X5.84Y-2.1717
X5.84Y-2.2717
X5.84Y-2.3717
X5.84Y-2.5415
X5.84Y-2.6415
X5.84Y-2.7415
X5.84Y-2.8415
X5.862Y-3.7209
X5.862Y-3.8209
X5.862Y-3.9709
X5.862Y-4.9709
X5.862Y-5.1209
X5.862Y-5.2209
X5.8638Y-3.2858
X5.8638Y-3.3858
X5.94Y-2.0717
X5.94Y-2.1717
X5.94Y-2.2717
X5.94Y-2.3717
X5.94Y-2.5415
X5.94Y-2.6415
X5.94Y-2.7415
X5.94Y-2.8415
X5.962Y-3.7209
X5.962Y-3.8209
X5.962Y-3.9709
X5.962Y-4.9709
X5.962Y-5.1209
X5.962Y-5.2209
X5.9638Y-3.2858
X5.9638Y-3.3858
X6.04Y-2.0717
X6.04Y-2.1717
X6.04Y-2.2717
X6.04Y-2.3717
X6.04Y-2.5415
X6.04Y-2.6415
X6.04Y-2.7415
X6.04Y-2.8415
X6.062Y-3.7209
X6.062Y-3.8209
X6.062Y-3.9709
X6.062Y-4.9709
X6.062Y-5.1209
X6.062Y-5.2209
X6.0638Y-3.2858
X6.0638Y-3.3858
X6.14Y-2.0717
X6.14Y-2.1717
X6.14Y-2.2717
X6.14Y-2.3717
X6.14Y-2.5415
X6.14Y-2.6415
X6.14Y-2.7415
X6.14Y-2.8415
X6.162Y-3.7209
X6.162Y-3.8209
X6.162Y-3.9709
X6.162Y-4.9709
X6.162Y-5.1209
X6.162Y-5.2209
X6.1638Y-3.2858
X6.1638Y-3.3858
X6.24Y-2.0717
X6.24Y-2.1717
X6.24Y-2.2717
X6.24Y-2.3717
X6.24Y-2.5415
X6.24Y-2.6415
X6.24Y-2.7415
X6.24Y-2.8415
X6.262Y-3.7209
X6.262Y-3.8209
X6.262Y-3.9709
X6.262Y-4.9709
X6.262Y-5.1209
X6.262Y-5.2209
X6.2638Y-3.2858
X6.2638Y-3.3858
X6.34Y-2.0717
X6.34Y-2.1717
X6.34Y-2.2717
X6.34Y-2.3717
X6.34Y-2.5415
X6.34Y-2.6415
X6.34Y-2.7415
X6.34Y-2.8415
X6.362Y-3.7209
X6.362Y-3.8209
X6.362Y-3.9709
X6.362Y-4.9709
X6.362Y-5.1209
X6.362Y-5.2209
X6.3638Y-3.2858
X6.3638Y-3.3858
X6.44Y-2.0717
X6.44Y-2.1717
X6.44Y-2.2717
X6.44Y-2.3717
X6.44Y-2.5415
X6.44Y-2.6415
X6.44Y-2.7415
X6.44Y-2.8415
X6.462Y-3.7209
X6.462Y-3.8209
X6.462Y-3.9709
X6.462Y-4.9709
X6.462Y-5.1209
X6.462Y-5.2209
X6.4638Y-3.2858
X6.4638Y-3.3858
X6.54Y-2.0717
X6.54Y-2.1717
X6.54Y-2.2717
X6.54Y-2.3717
X6.54Y-2.5415
X6.54Y-2.6415
X6.54Y-2.7415
X6.54Y-2.8415
X6.562Y-3.7209
X6.562Y-3.8209
X6.562Y-3.9709
X6.562Y-4.9709
X6.562Y-5.1209
X6.562Y-5.2209
X6.5638Y-3.2858
X6.5638Y-3.3858
X6.64Y-2.0717
X6.64Y-2.1717
X6.64Y-2.2717
X6.64Y-2.3717
X6.64Y-2.5415
X6.64Y-2.6415
X6.64Y-2.7415
X6.64Y-2.8415
X6.662Y-3.7209
X6.662Y-3.8209
X6.662Y-3.9709
X6.662Y-4.9709
X6.662Y-5.1209
X6.662Y-5.2209
X6.6638Y-3.2858
X6.6638Y-3.3858
X6.74Y-2.0717
X6.74Y-2.1717
X6.74Y-2.2717
X6.74Y-2.3717
X6.74Y-2.5415
X6.74Y-2.6415
X6.74Y-2.7415
X6.74Y-2.8415
X6.9882Y-2.85
X6.9882Y-2.95
T3
X3.89Y-5.4469
X4.04Y-2.0717
X6.94Y-2.0717
X7.04Y-5.4469
T0
M30
