%TF.GenerationSoftware,KiCad,Pcbnew,(5.1.9)-1*%
%TF.CreationDate,2021-03-16T20:14:41+01:00*%
%TF.ProjectId,ESP32_V2a,45535033-325f-4563-9261-2e6b69636164,rev?*%
%TF.SameCoordinates,Original*%
%TF.FileFunction,Soldermask,Bot*%
%TF.FilePolarity,Negative*%
%FSLAX46Y46*%
G04 Gerber Fmt 4.6, Leading zero omitted, Abs format (unit mm)*
G04 Created by KiCad (PCBNEW (5.1.9)-1) date 2021-03-16 20:14:41*
%MOMM*%
%LPD*%
G01*
G04 APERTURE LIST*
%ADD10O,1.800000X1.800000*%
%ADD11O,1.500000X2.100000*%
%ADD12C,5.700000*%
G04 APERTURE END LIST*
D10*
%TO.C,J13*%
X99660000Y-107800000D03*
G36*
G01*
X101350000Y-106900000D02*
X103050000Y-106900000D01*
G75*
G02*
X103100000Y-106950000I0J-50000D01*
G01*
X103100000Y-108650000D01*
G75*
G02*
X103050000Y-108700000I-50000J0D01*
G01*
X101350000Y-108700000D01*
G75*
G02*
X101300000Y-108650000I0J50000D01*
G01*
X101300000Y-106950000D01*
G75*
G02*
X101350000Y-106900000I50000J0D01*
G01*
G37*
%TD*%
%TO.C,J12*%
X103280000Y-122300000D03*
X100740000Y-122300000D03*
G36*
G01*
X99050000Y-123200000D02*
X97350000Y-123200000D01*
G75*
G02*
X97300000Y-123150000I0J50000D01*
G01*
X97300000Y-121450000D01*
G75*
G02*
X97350000Y-121400000I50000J0D01*
G01*
X99050000Y-121400000D01*
G75*
G02*
X99100000Y-121450000I0J-50000D01*
G01*
X99100000Y-123150000D01*
G75*
G02*
X99050000Y-123200000I-50000J0D01*
G01*
G37*
%TD*%
%TO.C,J5*%
X169260000Y-83460000D03*
X169260000Y-86000000D03*
X166720000Y-83460000D03*
X166720000Y-86000000D03*
X164180000Y-83460000D03*
X164180000Y-86000000D03*
X161640000Y-83460000D03*
X161640000Y-86000000D03*
X159100000Y-83460000D03*
X159100000Y-86000000D03*
X156560000Y-83460000D03*
X156560000Y-86000000D03*
X154020000Y-83460000D03*
X154020000Y-86000000D03*
X151480000Y-83460000D03*
X151480000Y-86000000D03*
X148940000Y-83460000D03*
X148940000Y-86000000D03*
X146400000Y-83460000D03*
X146400000Y-86000000D03*
X143860000Y-83460000D03*
X143860000Y-86000000D03*
X141320000Y-83460000D03*
X141320000Y-86000000D03*
X138780000Y-83460000D03*
X138780000Y-86000000D03*
X136240000Y-83460000D03*
X136240000Y-86000000D03*
X133700000Y-83460000D03*
X133700000Y-86000000D03*
X131160000Y-83460000D03*
X131160000Y-86000000D03*
X128620000Y-83460000D03*
X128620000Y-86000000D03*
X126080000Y-83460000D03*
X126080000Y-86000000D03*
X123540000Y-83460000D03*
X123540000Y-86000000D03*
X121000000Y-83460000D03*
G36*
G01*
X121850000Y-86900000D02*
X120150000Y-86900000D01*
G75*
G02*
X120100000Y-86850000I0J50000D01*
G01*
X120100000Y-85150000D01*
G75*
G02*
X120150000Y-85100000I50000J0D01*
G01*
X121850000Y-85100000D01*
G75*
G02*
X121900000Y-85150000I0J-50000D01*
G01*
X121900000Y-86850000D01*
G75*
G02*
X121850000Y-86900000I-50000J0D01*
G01*
G37*
%TD*%
%TO.C,J4*%
G36*
G01*
X108396000Y-73225000D02*
X106996000Y-73225000D01*
G75*
G02*
X106946000Y-73175000I0J50000D01*
G01*
X106946000Y-71175000D01*
G75*
G02*
X106996000Y-71125000I50000J0D01*
G01*
X108396000Y-71125000D01*
G75*
G02*
X108446000Y-71175000I0J-50000D01*
G01*
X108446000Y-73175000D01*
G75*
G02*
X108396000Y-73225000I-50000J0D01*
G01*
G37*
D11*
X107696000Y-69635000D03*
X110236000Y-72175000D03*
X110236000Y-69635000D03*
X112776000Y-72175000D03*
X112776000Y-69635000D03*
X115316000Y-72175000D03*
X115316000Y-69635000D03*
X117856000Y-72175000D03*
X117856000Y-69635000D03*
X120396000Y-72175000D03*
X120396000Y-69635000D03*
X122936000Y-72175000D03*
X122936000Y-69635000D03*
X125476000Y-72175000D03*
X125476000Y-69635000D03*
X128016000Y-72175000D03*
X128016000Y-69635000D03*
X153416000Y-69635000D03*
X155956000Y-72175000D03*
X155956000Y-69635000D03*
X140716000Y-72175000D03*
X140716000Y-69635000D03*
X135636000Y-72175000D03*
X135636000Y-69635000D03*
X138176000Y-72175000D03*
X138176000Y-69635000D03*
X168656000Y-72175000D03*
X168656000Y-69635000D03*
X171196000Y-72175000D03*
X171196000Y-69635000D03*
X163576000Y-72175000D03*
X163576000Y-69635000D03*
X166116000Y-72175000D03*
X166116000Y-69635000D03*
X150876000Y-72175000D03*
X150876000Y-69635000D03*
X158496000Y-72175000D03*
X158496000Y-69635000D03*
X161036000Y-72175000D03*
X161036000Y-69635000D03*
X148336000Y-72175000D03*
X148336000Y-69635000D03*
X145796000Y-72175000D03*
X145796000Y-69635000D03*
X143256000Y-72175000D03*
X143256000Y-69635000D03*
X153416000Y-72175000D03*
X130556000Y-69635000D03*
X130556000Y-72175000D03*
X133096000Y-72175000D03*
X133096000Y-69635000D03*
%TD*%
%TO.C,J3*%
G36*
G01*
X108396000Y-68145000D02*
X106996000Y-68145000D01*
G75*
G02*
X106946000Y-68095000I0J50000D01*
G01*
X106946000Y-66095000D01*
G75*
G02*
X106996000Y-66045000I50000J0D01*
G01*
X108396000Y-66045000D01*
G75*
G02*
X108446000Y-66095000I0J-50000D01*
G01*
X108446000Y-68095000D01*
G75*
G02*
X108396000Y-68145000I-50000J0D01*
G01*
G37*
X107696000Y-64555000D03*
X110236000Y-67095000D03*
X110236000Y-64555000D03*
X112776000Y-67095000D03*
X112776000Y-64555000D03*
X115316000Y-67095000D03*
X115316000Y-64555000D03*
X117856000Y-67095000D03*
X117856000Y-64555000D03*
X120396000Y-67095000D03*
X120396000Y-64555000D03*
X122936000Y-67095000D03*
X122936000Y-64555000D03*
X125476000Y-67095000D03*
X125476000Y-64555000D03*
X128016000Y-67095000D03*
X128016000Y-64555000D03*
X153416000Y-64555000D03*
X155956000Y-67095000D03*
X155956000Y-64555000D03*
X140716000Y-67095000D03*
X140716000Y-64555000D03*
X135636000Y-67095000D03*
X135636000Y-64555000D03*
X138176000Y-67095000D03*
X138176000Y-64555000D03*
X168656000Y-67095000D03*
X168656000Y-64555000D03*
X171196000Y-67095000D03*
X171196000Y-64555000D03*
X163576000Y-67095000D03*
X163576000Y-64555000D03*
X166116000Y-67095000D03*
X166116000Y-64555000D03*
X150876000Y-67095000D03*
X150876000Y-64555000D03*
X158496000Y-67095000D03*
X158496000Y-64555000D03*
X161036000Y-67095000D03*
X161036000Y-64555000D03*
X148336000Y-67095000D03*
X148336000Y-64555000D03*
X145796000Y-67095000D03*
X145796000Y-64555000D03*
X143256000Y-67095000D03*
X143256000Y-64555000D03*
X153416000Y-67095000D03*
X130556000Y-64555000D03*
X130556000Y-67095000D03*
X133096000Y-67095000D03*
X133096000Y-64555000D03*
%TD*%
%TO.C,J2*%
G36*
G01*
X108396000Y-61290000D02*
X106996000Y-61290000D01*
G75*
G02*
X106946000Y-61240000I0J50000D01*
G01*
X106946000Y-59240000D01*
G75*
G02*
X106996000Y-59190000I50000J0D01*
G01*
X108396000Y-59190000D01*
G75*
G02*
X108446000Y-59240000I0J-50000D01*
G01*
X108446000Y-61240000D01*
G75*
G02*
X108396000Y-61290000I-50000J0D01*
G01*
G37*
X107696000Y-57700000D03*
X110236000Y-60240000D03*
X110236000Y-57700000D03*
X112776000Y-60240000D03*
X112776000Y-57700000D03*
X115316000Y-60240000D03*
X115316000Y-57700000D03*
X117856000Y-60240000D03*
X117856000Y-57700000D03*
X120396000Y-60240000D03*
X120396000Y-57700000D03*
X122936000Y-60240000D03*
X122936000Y-57700000D03*
X125476000Y-60240000D03*
X125476000Y-57700000D03*
X128016000Y-60240000D03*
X128016000Y-57700000D03*
X153416000Y-57700000D03*
X155956000Y-60240000D03*
X155956000Y-57700000D03*
X140716000Y-60240000D03*
X140716000Y-57700000D03*
X135636000Y-60240000D03*
X135636000Y-57700000D03*
X138176000Y-60240000D03*
X138176000Y-57700000D03*
X168656000Y-60240000D03*
X168656000Y-57700000D03*
X171196000Y-60240000D03*
X171196000Y-57700000D03*
X163576000Y-60240000D03*
X163576000Y-57700000D03*
X166116000Y-60240000D03*
X166116000Y-57700000D03*
X150876000Y-60240000D03*
X150876000Y-57700000D03*
X158496000Y-60240000D03*
X158496000Y-57700000D03*
X161036000Y-60240000D03*
X161036000Y-57700000D03*
X148336000Y-60240000D03*
X148336000Y-57700000D03*
X145796000Y-60240000D03*
X145796000Y-57700000D03*
X143256000Y-60240000D03*
X143256000Y-57700000D03*
X153416000Y-60240000D03*
X130556000Y-57700000D03*
X130556000Y-60240000D03*
X133096000Y-60240000D03*
X133096000Y-57700000D03*
%TD*%
%TO.C,J1*%
G36*
G01*
X108396000Y-56210000D02*
X106996000Y-56210000D01*
G75*
G02*
X106946000Y-56160000I0J50000D01*
G01*
X106946000Y-54160000D01*
G75*
G02*
X106996000Y-54110000I50000J0D01*
G01*
X108396000Y-54110000D01*
G75*
G02*
X108446000Y-54160000I0J-50000D01*
G01*
X108446000Y-56160000D01*
G75*
G02*
X108396000Y-56210000I-50000J0D01*
G01*
G37*
X107696000Y-52620000D03*
X110236000Y-55160000D03*
X110236000Y-52620000D03*
X112776000Y-55160000D03*
X112776000Y-52620000D03*
X115316000Y-55160000D03*
X115316000Y-52620000D03*
X117856000Y-55160000D03*
X117856000Y-52620000D03*
X120396000Y-55160000D03*
X120396000Y-52620000D03*
X122936000Y-55160000D03*
X122936000Y-52620000D03*
X125476000Y-55160000D03*
X125476000Y-52620000D03*
X128016000Y-55160000D03*
X128016000Y-52620000D03*
X153416000Y-52620000D03*
X155956000Y-55160000D03*
X155956000Y-52620000D03*
X140716000Y-55160000D03*
X140716000Y-52620000D03*
X135636000Y-55160000D03*
X135636000Y-52620000D03*
X138176000Y-55160000D03*
X138176000Y-52620000D03*
X168656000Y-55160000D03*
X168656000Y-52620000D03*
X171196000Y-55160000D03*
X171196000Y-52620000D03*
X163576000Y-55160000D03*
X163576000Y-52620000D03*
X166116000Y-55160000D03*
X166116000Y-52620000D03*
X150876000Y-55160000D03*
X150876000Y-52620000D03*
X158496000Y-55160000D03*
X158496000Y-52620000D03*
X161036000Y-55160000D03*
X161036000Y-52620000D03*
X148336000Y-55160000D03*
X148336000Y-52620000D03*
X145796000Y-55160000D03*
X145796000Y-52620000D03*
X143256000Y-55160000D03*
X143256000Y-52620000D03*
X153416000Y-55160000D03*
X130556000Y-52620000D03*
X130556000Y-55160000D03*
X133096000Y-55160000D03*
X133096000Y-52620000D03*
%TD*%
D10*
%TO.C,J10*%
X113140000Y-108300000D03*
G36*
G01*
X111450000Y-109200000D02*
X109750000Y-109200000D01*
G75*
G02*
X109700000Y-109150000I0J50000D01*
G01*
X109700000Y-107450000D01*
G75*
G02*
X109750000Y-107400000I50000J0D01*
G01*
X111450000Y-107400000D01*
G75*
G02*
X111500000Y-107450000I0J-50000D01*
G01*
X111500000Y-109150000D01*
G75*
G02*
X111450000Y-109200000I-50000J0D01*
G01*
G37*
%TD*%
%TO.C,JP3*%
X101600000Y-75565000D03*
G36*
G01*
X100700000Y-73875000D02*
X100700000Y-72175000D01*
G75*
G02*
X100750000Y-72125000I50000J0D01*
G01*
X102450000Y-72125000D01*
G75*
G02*
X102500000Y-72175000I0J-50000D01*
G01*
X102500000Y-73875000D01*
G75*
G02*
X102450000Y-73925000I-50000J0D01*
G01*
X100750000Y-73925000D01*
G75*
G02*
X100700000Y-73875000I0J50000D01*
G01*
G37*
%TD*%
%TO.C,JP1*%
X177500000Y-74930000D03*
G36*
G01*
X176600000Y-73240000D02*
X176600000Y-71540000D01*
G75*
G02*
X176650000Y-71490000I50000J0D01*
G01*
X178350000Y-71490000D01*
G75*
G02*
X178400000Y-71540000I0J-50000D01*
G01*
X178400000Y-73240000D01*
G75*
G02*
X178350000Y-73290000I-50000J0D01*
G01*
X176650000Y-73290000D01*
G75*
G02*
X176600000Y-73240000I0J50000D01*
G01*
G37*
%TD*%
%TO.C,J11*%
X112940000Y-121800000D03*
G36*
G01*
X111250000Y-122700000D02*
X109550000Y-122700000D01*
G75*
G02*
X109500000Y-122650000I0J50000D01*
G01*
X109500000Y-120950000D01*
G75*
G02*
X109550000Y-120900000I50000J0D01*
G01*
X111250000Y-120900000D01*
G75*
G02*
X111300000Y-120950000I0J-50000D01*
G01*
X111300000Y-122650000D01*
G75*
G02*
X111250000Y-122700000I-50000J0D01*
G01*
G37*
%TD*%
%TO.C,JP2*%
X97790000Y-75565000D03*
G36*
G01*
X96890000Y-73875000D02*
X96890000Y-72175000D01*
G75*
G02*
X96940000Y-72125000I50000J0D01*
G01*
X98640000Y-72125000D01*
G75*
G02*
X98690000Y-72175000I0J-50000D01*
G01*
X98690000Y-73875000D01*
G75*
G02*
X98640000Y-73925000I-50000J0D01*
G01*
X96940000Y-73925000D01*
G75*
G02*
X96890000Y-73875000I0J50000D01*
G01*
G37*
%TD*%
D12*
%TO.C,H3*%
X178816000Y-138350000D03*
%TD*%
%TO.C,H4*%
X98806000Y-138350000D03*
%TD*%
%TO.C,H1*%
X102616000Y-52620000D03*
%TD*%
%TO.C,H2*%
X176276000Y-52620000D03*
%TD*%
D10*
%TO.C,J9*%
X169215000Y-130070000D03*
X169215000Y-132610000D03*
X166675000Y-130070000D03*
X166675000Y-132610000D03*
X164135000Y-130070000D03*
X164135000Y-132610000D03*
X161595000Y-130070000D03*
X161595000Y-132610000D03*
X159055000Y-130070000D03*
X159055000Y-132610000D03*
X156515000Y-130070000D03*
X156515000Y-132610000D03*
X153975000Y-130070000D03*
X153975000Y-132610000D03*
X151435000Y-130070000D03*
X151435000Y-132610000D03*
X148895000Y-130070000D03*
X148895000Y-132610000D03*
X146355000Y-130070000D03*
X146355000Y-132610000D03*
X143815000Y-130070000D03*
X143815000Y-132610000D03*
X141275000Y-130070000D03*
X141275000Y-132610000D03*
X138735000Y-130070000D03*
X138735000Y-132610000D03*
X136195000Y-130070000D03*
X136195000Y-132610000D03*
X133655000Y-130070000D03*
X133655000Y-132610000D03*
X131115000Y-130070000D03*
X131115000Y-132610000D03*
X128575000Y-130070000D03*
X128575000Y-132610000D03*
X126035000Y-130070000D03*
X126035000Y-132610000D03*
X123495000Y-130070000D03*
G36*
G01*
X124345000Y-133510000D02*
X122645000Y-133510000D01*
G75*
G02*
X122595000Y-133460000I0J50000D01*
G01*
X122595000Y-131760000D01*
G75*
G02*
X122645000Y-131710000I50000J0D01*
G01*
X124345000Y-131710000D01*
G75*
G02*
X124395000Y-131760000I0J-50000D01*
G01*
X124395000Y-133460000D01*
G75*
G02*
X124345000Y-133510000I-50000J0D01*
G01*
G37*
%TD*%
%TO.C,J8*%
X169215000Y-94510000D03*
X169215000Y-97050000D03*
X166675000Y-94510000D03*
X166675000Y-97050000D03*
X164135000Y-94510000D03*
X164135000Y-97050000D03*
X161595000Y-94510000D03*
X161595000Y-97050000D03*
X159055000Y-94510000D03*
X159055000Y-97050000D03*
X156515000Y-94510000D03*
X156515000Y-97050000D03*
X153975000Y-94510000D03*
X153975000Y-97050000D03*
X151435000Y-94510000D03*
X151435000Y-97050000D03*
X148895000Y-94510000D03*
X148895000Y-97050000D03*
X146355000Y-94510000D03*
X146355000Y-97050000D03*
X143815000Y-94510000D03*
X143815000Y-97050000D03*
X141275000Y-94510000D03*
X141275000Y-97050000D03*
X138735000Y-94510000D03*
X138735000Y-97050000D03*
X136195000Y-94510000D03*
X136195000Y-97050000D03*
X133655000Y-94510000D03*
X133655000Y-97050000D03*
X131115000Y-94510000D03*
X131115000Y-97050000D03*
X128575000Y-94510000D03*
X128575000Y-97050000D03*
X126035000Y-94510000D03*
X126035000Y-97050000D03*
X123495000Y-94510000D03*
G36*
G01*
X124345000Y-97950000D02*
X122645000Y-97950000D01*
G75*
G02*
X122595000Y-97900000I0J50000D01*
G01*
X122595000Y-96200000D01*
G75*
G02*
X122645000Y-96150000I50000J0D01*
G01*
X124345000Y-96150000D01*
G75*
G02*
X124395000Y-96200000I0J-50000D01*
G01*
X124395000Y-97900000D01*
G75*
G02*
X124345000Y-97950000I-50000J0D01*
G01*
G37*
%TD*%
%TO.C,J7*%
X169215000Y-126260000D03*
X166675000Y-126260000D03*
X164135000Y-126260000D03*
X161595000Y-126260000D03*
X159055000Y-126260000D03*
X156515000Y-126260000D03*
X153975000Y-126260000D03*
X151435000Y-126260000D03*
X148895000Y-126260000D03*
X146355000Y-126260000D03*
X143815000Y-126260000D03*
X141275000Y-126260000D03*
X138735000Y-126260000D03*
X136195000Y-126260000D03*
X133655000Y-126260000D03*
X131115000Y-126260000D03*
X128575000Y-126260000D03*
X126035000Y-126260000D03*
G36*
G01*
X124345000Y-127160000D02*
X122645000Y-127160000D01*
G75*
G02*
X122595000Y-127110000I0J50000D01*
G01*
X122595000Y-125410000D01*
G75*
G02*
X122645000Y-125360000I50000J0D01*
G01*
X124345000Y-125360000D01*
G75*
G02*
X124395000Y-125410000I0J-50000D01*
G01*
X124395000Y-127110000D01*
G75*
G02*
X124345000Y-127160000I-50000J0D01*
G01*
G37*
%TD*%
%TO.C,J6*%
X169215000Y-100860000D03*
X166675000Y-100860000D03*
X164135000Y-100860000D03*
X161595000Y-100860000D03*
X159055000Y-100860000D03*
X156515000Y-100860000D03*
X153975000Y-100860000D03*
X151435000Y-100860000D03*
X148895000Y-100860000D03*
X146355000Y-100860000D03*
X143815000Y-100860000D03*
X141275000Y-100860000D03*
X138735000Y-100860000D03*
X136195000Y-100860000D03*
X133655000Y-100860000D03*
X131115000Y-100860000D03*
X128575000Y-100860000D03*
X126035000Y-100860000D03*
G36*
G01*
X124345000Y-101760000D02*
X122645000Y-101760000D01*
G75*
G02*
X122595000Y-101710000I0J50000D01*
G01*
X122595000Y-100010000D01*
G75*
G02*
X122645000Y-99960000I50000J0D01*
G01*
X124345000Y-99960000D01*
G75*
G02*
X124395000Y-100010000I0J-50000D01*
G01*
X124395000Y-101710000D01*
G75*
G02*
X124345000Y-101760000I-50000J0D01*
G01*
G37*
%TD*%
M02*
