(module LOGO (layer F.Cu)
  (at 0 0)
 (fp_text reference "G***" (at 0 0) (layer F.SilkS) hide
  (effects (font (thickness 0.3)))
  )
  (fp_text value "LOGO" (at 0.75 0) (layer F.SilkS) hide
  (effects (font (thickness 0.3)))
  )
  (fp_poly (pts (xy -7.460653 2.223082) (xy -7.367051 2.237929) (xy -7.300598 2.256736) (xy -7.241385 2.280569) (xy -7.183390 2.310967) (xy -7.133412 2.344242) (xy -7.121161 2.354095) (xy -7.100689 2.371450)
     (xy -7.136975 2.440908) (xy -7.162254 2.486497) (xy -7.184185 2.517333) (xy -7.205470 2.534478) (xy -7.228811 2.538997) (xy -7.256911 2.531952) (xy -7.292470 2.514405) (xy -7.305256 2.507101)
     (xy -7.361758 2.477141) (xy -7.411827 2.457767) (xy -7.460762 2.447353) (xy -7.509933 2.444284) (xy -7.570685 2.447378) (xy -7.619031 2.458101) (xy -7.658091 2.477331) (xy -7.675577 2.490813)
     (xy -7.710645 2.531176) (xy -7.730523 2.576403) (xy -7.734525 2.624470) (xy -7.729861 2.650828) (xy -7.719270 2.679607) (xy -7.702961 2.704760) (xy -7.679093 2.727506) (xy -7.645823 2.749060)
     (xy -7.601308 2.770639) (xy -7.543707 2.793462) (xy -7.480300 2.815685) (xy -7.432661 2.832159) (xy -7.385581 2.849195) (xy -7.343882 2.864999) (xy -7.312389 2.877776) (xy -7.307238 2.880035)
     (xy -7.232420 2.921137) (xy -7.172050 2.970889) (xy -7.126216 3.029197) (xy -7.095009 3.095964) (xy -7.090284 3.111183) (xy -7.081888 3.157934) (xy -7.079243 3.214448) (xy -7.082067 3.274669)
     (xy -7.090078 3.332538) (xy -7.102904 3.381750) (xy -7.138045 3.456767) (xy -7.186928 3.523652) (xy -7.247663 3.580788) (xy -7.318362 3.626556) (xy -7.397134 3.659339) (xy -7.440119 3.670603)
     (xy -7.475601 3.675868) (xy -7.521374 3.679537) (xy -7.571524 3.681447) (xy -7.620133 3.681436) (xy -7.661287 3.679343) (xy -7.679266 3.677136) (xy -7.730541 3.665806) (xy -7.787514 3.648920)
     (xy -7.842250 3.629047) (xy -7.880705 3.611920) (xy -7.911217 3.595145) (xy -7.944484 3.574604) (xy -7.977339 3.552550) (xy -8.006612 3.531241) (xy -8.029134 3.512932) (xy -8.041737 3.499878)
     (xy -8.043333 3.496165) (xy -8.038960 3.484746) (xy -8.032836 3.473344) (xy -7.924531 3.473344) (xy -7.917494 3.482596) (xy -7.897961 3.496407) (xy -7.869122 3.512955) (xy -7.834166 3.530419)
     (xy -7.796284 3.546979) (xy -7.793812 3.547974) (xy -7.697785 3.578507) (xy -7.603948 3.592291) (xy -7.512122 3.589343) (xy -7.459133 3.579838) (xy -7.419525 3.567520) (xy -7.375394 3.549062)
     (xy -7.332014 3.527120) (xy -7.294655 3.504352) (xy -7.269335 3.484171) (xy -7.240589 3.447590) (xy -7.214349 3.399909) (xy -7.192238 3.345847) (xy -7.175877 3.290125) (xy -7.166891 3.237461)
     (xy -7.166901 3.192575) (xy -7.167549 3.188144) (xy -7.179897 3.138390) (xy -7.199179 3.089297) (xy -7.222347 3.048408) (xy -7.226133 3.043233) (xy -7.249128 3.021802) (xy -7.286530 2.997757)
     (xy -7.336214 2.972143) (xy -7.396053 2.946007) (xy -7.463923 2.920396) (xy -7.501467 2.907703) (xy -7.544773 2.893189) (xy -7.587028 2.878283) (xy -7.622873 2.864915) (xy -7.643742 2.856448)
     (xy -7.674103 2.839343) (xy -7.708824 2.813854) (xy -7.743992 2.783554) (xy -7.775692 2.752011) (xy -7.800014 2.722796) (xy -7.811633 2.703255) (xy -7.818528 2.676024) (xy -7.822211 2.638373)
     (xy -7.822582 2.596529) (xy -7.819543 2.556718) (xy -7.814386 2.529770) (xy -7.800853 2.501228) (xy -7.776596 2.468056) (xy -7.745412 2.434336) (xy -7.711096 2.404153) (xy -7.677444 2.381588)
     (xy -7.675810 2.380714) (xy -7.657742 2.371674) (xy -7.641280 2.365409) (xy -7.622797 2.361412) (xy -7.598666 2.359177) (xy -7.565260 2.358198) (xy -7.518954 2.357968) (xy -7.512829 2.357966)
     (xy -7.392959 2.357966) (xy -7.315785 2.397264) (xy -7.280835 2.414781) (xy -7.257855 2.425188) (xy -7.243857 2.429316) (xy -7.235857 2.428000) (xy -7.230870 2.422072) (xy -7.230339 2.421104)
     (xy -7.223929 2.406053) (xy -7.225530 2.394863) (xy -7.237506 2.384503) (xy -7.262217 2.371944) (xy -7.272201 2.367413) (xy -7.366676 2.332983) (xy -7.459500 2.315092) (xy -7.550210 2.313746)
     (xy -7.638338 2.328950) (xy -7.723420 2.360710) (xy -7.725833 2.361877) (xy -7.773879 2.389609) (xy -7.811429 2.422467) (xy -7.842586 2.464713) (xy -7.864711 2.506133) (xy -7.880113 2.540010)
     (xy -7.889233 2.566760) (xy -7.893684 2.593592) (xy -7.895080 2.627710) (xy -7.895145 2.642039) (xy -7.894494 2.679742) (xy -7.891421 2.707617) (xy -7.884282 2.732751) (xy -7.871437 2.762232)
     (xy -7.863556 2.778405) (xy -7.841571 2.818436) (xy -7.820712 2.845929) (xy -7.799283 2.863980) (xy -7.753266 2.889720) (xy -7.691180 2.916803) (xy -7.613806 2.944914) (xy -7.543800 2.967213)
     (xy -7.487037 2.984964) (xy -7.443190 3.000448) (xy -7.408735 3.015463) (xy -7.380150 3.031804) (xy -7.353912 3.051268) (xy -7.326497 3.075652) (xy -7.321054 3.080809) (xy -7.290147 3.111478)
     (xy -7.269342 3.136845) (xy -7.256657 3.161720) (xy -7.250112 3.190914) (xy -7.247726 3.229237) (xy -7.247466 3.259518) (xy -7.248840 3.311502) (xy -7.254154 3.351441) (xy -7.265199 3.384087)
     (xy -7.283764 3.414192) (xy -7.311639 3.446507) (xy -7.321924 3.457178) (xy -7.354492 3.489026) (xy -7.382736 3.511922) (xy -7.410689 3.527441) (xy -7.442382 3.537156) (xy -7.481847 3.542642)
     (xy -7.533118 3.545472) (xy -7.549419 3.545982) (xy -7.610391 3.546636) (xy -7.659279 3.543933) (xy -7.700787 3.536738) (xy -7.739618 3.523917) (xy -7.780475 3.504338) (xy -7.822696 3.480103)
     (xy -7.853305 3.461940) (xy -7.878166 3.447629) (xy -7.893946 3.439062) (xy -7.897701 3.437466) (xy -7.905742 3.443617) (xy -7.916302 3.457018) (xy -7.923718 3.470097) (xy -7.924531 3.473344)
     (xy -8.032836 3.473344) (xy -8.027515 3.463439) (xy -8.011509 3.436317) (xy -7.993451 3.407454) (xy -7.975852 3.380923) (xy -7.961223 3.360798) (xy -7.956278 3.354916) (xy -7.931914 3.338593)
     (xy -7.901328 3.336586) (xy -7.863669 3.348992) (xy -7.828023 3.369262) (xy -7.792438 3.390829) (xy -7.751007 3.413697) (xy -7.717366 3.430645) (xy -7.689213 3.443379) (xy -7.666255 3.451515)
     (xy -7.643120 3.456059) (xy -7.614436 3.458016) (xy -7.574829 3.458393) (xy -7.569200 3.458380) (xy -7.526160 3.457701) (xy -7.495238 3.455456) (xy -7.471636 3.450900) (xy -7.450558 3.443286)
     (xy -7.439835 3.438281) (xy -7.396405 3.408986) (xy -7.363616 3.370732) (xy -7.341938 3.326473) (xy -7.331841 3.279159) (xy -7.333797 3.231743) (xy -7.348275 3.187177) (xy -7.375747 3.148413)
     (xy -7.391400 3.134473) (xy -7.421653 3.114406) (xy -7.460046 3.095470) (xy -7.509494 3.076396) (xy -7.569200 3.057041) (xy -7.656709 3.028921) (xy -7.729355 3.001971) (xy -7.789038 2.974977)
     (xy -7.837658 2.946725) (xy -7.877118 2.916003) (xy -7.909317 2.881596) (xy -7.936157 2.842292) (xy -7.952086 2.812618) (xy -7.963261 2.789296) (xy -7.970943 2.770021) (xy -7.975788 2.750768)
     (xy -7.978448 2.727512) (xy -7.979577 2.696227) (xy -7.979830 2.652886) (xy -7.979833 2.641778) (xy -7.979663 2.595195) (xy -7.978727 2.561476) (xy -7.976383 2.536551) (xy -7.971993 2.516351)
     (xy -7.964915 2.496807) (xy -7.954510 2.473850) (xy -7.952867 2.470376) (xy -7.911030 2.401025) (xy -7.857078 2.342157) (xy -7.792583 2.294286) (xy -7.719119 2.257927) (xy -7.638260 2.233597)
     (xy -7.551580 2.221810) (xy -7.460653 2.223082) )(layer F.SilkS) (width  0.010000)
  )
  (fp_poly (pts (xy -2.503181 2.226877) (xy -2.454433 2.233574) (xy -2.451100 2.234274) (xy -2.353663 2.263840) (xy -2.259431 2.309032) (xy -2.171052 2.368550) (xy -2.161083 2.376498) (xy -2.125066 2.405721)
     (xy -2.169550 2.469593) (xy -2.200977 2.512322) (xy -2.226649 2.541436) (xy -2.248264 2.558524) (xy -2.267517 2.565178) (xy -2.271735 2.565400) (xy -2.287208 2.560956) (xy -2.311426 2.549281)
     (xy -2.339264 2.532859) (xy -2.340443 2.532098) (xy -2.388362 2.503092) (xy -2.431122 2.482762) (xy -2.474117 2.469474) (xy -2.522740 2.461595) (xy -2.582383 2.457491) (xy -2.587383 2.457292)
     (xy -2.638358 2.456053) (xy -2.677143 2.457032) (xy -2.708371 2.460550) (xy -2.736679 2.466925) (xy -2.739783 2.467805) (xy -2.819878 2.499377) (xy -2.890688 2.544585) (xy -2.951102 2.602234)
     (xy -3.000007 2.671129) (xy -3.036293 2.750076) (xy -3.051887 2.803213) (xy -3.059197 2.848232) (xy -3.063372 2.904049) (xy -3.064412 2.964823) (xy -3.062320 3.024713) (xy -3.057100 3.077878)
     (xy -3.051751 3.107266) (xy -3.023781 3.193007) (xy -2.983396 3.267940) (xy -2.931805 3.331314) (xy -2.870219 3.382375) (xy -2.799846 3.420372) (xy -2.721896 3.444551) (xy -2.637580 3.454161)
     (xy -2.548107 3.448448) (xy -2.513381 3.442183) (xy -2.452634 3.424917) (xy -2.397429 3.398895) (xy -2.341162 3.360995) (xy -2.340251 3.360301) (xy -2.316462 3.342711) (xy -2.297174 3.331535)
     (xy -2.279973 3.327705) (xy -2.262446 3.332158) (xy -2.242179 3.345827) (xy -2.216760 3.369647) (xy -2.183774 3.404554) (xy -2.160544 3.429897) (xy -2.132641 3.460428) (xy -2.155241 3.487286)
     (xy -2.200290 3.531533) (xy -2.258032 3.573937) (xy -2.324237 3.611961) (xy -2.394680 3.643068) (xy -2.439851 3.658121) (xy -2.477291 3.666052) (xy -2.526821 3.672515) (xy -2.583644 3.677279)
     (xy -2.642960 3.680113) (xy -2.699973 3.680783) (xy -2.749884 3.679060) (xy -2.786965 3.674883) (xy -2.890482 3.648074) (xy -2.986341 3.607208) (xy -3.073074 3.553109) (xy -3.149213 3.486598)
     (xy -3.175972 3.457173) (xy -3.233445 3.377031) (xy -3.279297 3.286637) (xy -3.313200 3.188358) (xy -3.334824 3.084560) (xy -3.343840 2.977611) (xy -3.343300 2.962740) (xy -3.254954 2.962740)
     (xy -3.248506 3.046264) (xy -3.232388 3.130659) (xy -3.207637 3.213027) (xy -3.175295 3.290472) (xy -3.136400 3.360095) (xy -3.091991 3.419000) (xy -3.043109 3.464288) (xy -3.041832 3.465225)
     (xy -2.951679 3.520774) (xy -2.855413 3.560929) (xy -2.754667 3.585353) (xy -2.651074 3.593710) (xy -2.546266 3.585664) (xy -2.500090 3.576818) (xy -2.414116 3.550663) (xy -2.333795 3.513437)
     (xy -2.298892 3.492256) (xy -2.273988 3.475248) (xy -2.261193 3.464230) (xy -2.258321 3.456117) (xy -2.263186 3.447822) (xy -2.265531 3.445162) (xy -2.273784 3.437468) (xy -2.282391 3.435941)
     (xy -2.295329 3.441748) (xy -2.316578 3.456055) (xy -2.326259 3.462960) (xy -2.363263 3.487767) (xy -2.397667 3.506229) (xy -2.433187 3.519348) (xy -2.473535 3.528127) (xy -2.522428 3.533570)
     (xy -2.583578 3.536679) (xy -2.601191 3.537209) (xy -2.654193 3.538380) (xy -2.694074 3.538397) (xy -2.724626 3.536985) (xy -2.749638 3.533868) (xy -2.772901 3.528770) (xy -2.792043 3.523309)
     (xy -2.864219 3.493074) (xy -2.933054 3.448430) (xy -2.996270 3.391869) (xy -3.051591 3.325879) (xy -3.096740 3.252953) (xy -3.129440 3.175581) (xy -3.138410 3.144407) (xy -3.145787 3.102719)
     (xy -3.150780 3.049575) (xy -3.153394 2.989472) (xy -3.153636 2.926909) (xy -3.151512 2.866382) (xy -3.147028 2.812391) (xy -3.140189 2.769432) (xy -3.137892 2.760133) (xy -3.108943 2.681938)
     (xy -3.067169 2.607339) (xy -3.014872 2.538842) (xy -2.954355 2.478954) (xy -2.887919 2.430181) (xy -2.817867 2.395030) (xy -2.795269 2.387132) (xy -2.745100 2.375516) (xy -2.684310 2.367636)
     (xy -2.618869 2.363837) (xy -2.554747 2.364466) (xy -2.497914 2.369867) (xy -2.497666 2.369905) (xy -2.442875 2.382635) (xy -2.385382 2.403083) (xy -2.332548 2.428345) (xy -2.303509 2.446457)
     (xy -2.287034 2.457303) (xy -2.277286 2.458308) (xy -2.267258 2.449534) (xy -2.264780 2.446808) (xy -2.256595 2.434477) (xy -2.257357 2.423067) (xy -2.268741 2.410834) (xy -2.292420 2.396034)
     (xy -2.330068 2.376924) (xy -2.333419 2.375307) (xy -2.429524 2.338252) (xy -2.529387 2.317228) (xy -2.631533 2.312162) (xy -2.734485 2.322981) (xy -2.836768 2.349612) (xy -2.936904 2.391983)
     (xy -2.963947 2.406428) (xy -3.040432 2.458704) (xy -3.105926 2.523653) (xy -3.160177 2.600857) (xy -3.202933 2.689896) (xy -3.233942 2.790353) (xy -3.250692 2.882985) (xy -3.254954 2.962740)
     (xy -3.343300 2.962740) (xy -3.339921 2.869878) (xy -3.322737 2.763726) (xy -3.291959 2.661522) (xy -3.287942 2.651159) (xy -3.241760 2.556994) (xy -3.182149 2.472482) (xy -3.110182 2.398531)
     (xy -3.026929 2.336047) (xy -2.933463 2.285937) (xy -2.830853 2.249109) (xy -2.805018 2.242355) (xy -2.754411 2.233131) (xy -2.693672 2.226851) (xy -2.628053 2.223636) (xy -2.562805 2.223604)
     (xy -2.503181 2.226877) )(layer F.SilkS) (width  0.010000)
  )
  (fp_poly (pts (xy 7.673899 2.228298) (xy 7.769147 2.248065) (xy 7.859105 2.280168) (xy 7.941711 2.324714) (xy 8.007856 2.375341) (xy 8.045959 2.409649) (xy 8.001092 2.472708) (xy 7.970809 2.514235)
     (xy 7.946794 2.542606) (xy 7.925944 2.558764) (xy 7.905154 2.563656) (xy 7.881321 2.558226) (xy 7.851340 2.543421) (xy 7.823200 2.526882) (xy 7.760843 2.493288) (xy 7.702474 2.471370)
     (xy 7.641772 2.459375) (xy 7.572413 2.455546) (xy 7.566192 2.455540) (xy 7.508167 2.457007) (xy 7.461331 2.461847) (xy 7.420085 2.471197) (xy 7.378832 2.486192) (xy 7.349302 2.499533)
     (xy 7.283391 2.540109) (xy 7.226415 2.593981) (xy 7.179230 2.659563) (xy 7.142692 2.735269) (xy 7.117656 2.819514) (xy 7.104979 2.910713) (xy 7.103533 2.954867) (xy 7.110454 3.052965)
     (xy 7.130588 3.142402) (xy 7.162993 3.222329) (xy 7.206726 3.291899) (xy 7.260847 3.350263) (xy 7.324412 3.396574) (xy 7.396480 3.429985) (xy 7.476108 3.449646) (xy 7.562355 3.454710)
     (xy 7.648604 3.445407) (xy 7.712668 3.428424) (xy 7.771673 3.401011) (xy 7.825329 3.365248) (xy 7.852527 3.346649) (xy 7.876958 3.333143) (xy 7.893670 3.327438) (xy 7.894575 3.327400)
     (xy 7.911473 3.334262) (xy 7.937476 3.354537) (xy 7.971992 3.387759) (xy 7.974169 3.389997) (xy 7.999487 3.416878) (xy 8.019628 3.439728) (xy 8.032077 3.455604) (xy 8.034867 3.460993)
     (xy 8.028588 3.471842) (xy 8.011785 3.490121) (xy 7.987514 3.513141) (xy 7.958828 3.538212) (xy 7.928781 3.562646) (xy 7.900426 3.583752) (xy 7.881213 3.596315) (xy 7.807988 3.631618)
     (xy 7.723691 3.658186) (xy 7.632065 3.675478) (xy 7.536859 3.682951) (xy 7.441817 3.680062) (xy 7.370233 3.670272) (xy 7.267045 3.642697) (xy 7.172863 3.601029) (xy 7.088409 3.545944)
     (xy 7.014406 3.478118) (xy 6.951574 3.398226) (xy 6.900635 3.306944) (xy 6.862311 3.204947) (xy 6.858313 3.191008) (xy 6.835262 3.080196) (xy 6.829229 3.000889) (xy 6.919324 3.000889)
     (xy 6.931536 3.098845) (xy 6.946485 3.160508) (xy 6.980845 3.257930) (xy 7.023450 3.341125) (xy 7.075348 3.411192) (xy 7.137586 3.469231) (xy 7.211214 3.516344) (xy 7.297280 3.553629)
     (xy 7.331793 3.564944) (xy 7.422721 3.586443) (xy 7.511715 3.594290) (xy 7.603336 3.588631) (xy 7.675033 3.575938) (xy 7.715217 3.564550) (xy 7.761206 3.547516) (xy 7.807948 3.527105)
     (xy 7.850395 3.505587) (xy 7.883493 3.485232) (xy 7.892798 3.478082) (xy 7.907484 3.464003) (xy 7.910195 3.453768) (xy 7.903801 3.442772) (xy 7.895735 3.433941) (xy 7.887306 3.433125)
     (xy 7.873730 3.441350) (xy 7.859603 3.452250) (xy 7.813879 3.484182) (xy 7.766822 3.507850) (xy 7.715057 3.524187) (xy 7.655209 3.534123) (xy 7.583903 3.538591) (xy 7.545162 3.539066)
     (xy 7.468493 3.536778) (xy 7.404500 3.529044) (xy 7.349442 3.514565) (xy 7.299578 3.492040) (xy 7.251165 3.460168) (xy 7.203329 3.420247) (xy 7.142449 3.356349) (xy 7.091626 3.284747)
     (xy 7.053867 3.209835) (xy 7.047033 3.191711) (xy 7.038598 3.166128) (xy 7.032429 3.142270) (xy 7.028069 3.116483) (xy 7.025060 3.085111) (xy 7.022944 3.044498) (xy 7.021264 2.990990)
     (xy 7.021095 2.984500) (xy 7.020789 2.895307) (xy 7.025483 2.819661) (xy 7.036110 2.754669) (xy 7.053603 2.697441) (xy 7.078894 2.645083) (xy 7.112917 2.594706) (xy 7.156605 2.543416)
     (xy 7.166979 2.532380) (xy 7.218977 2.481265) (xy 7.266790 2.442322) (xy 7.314295 2.412835) (xy 7.365373 2.390087) (xy 7.375427 2.386435) (xy 7.399511 2.378728) (xy 7.423196 2.373357)
     (xy 7.450370 2.369902) (xy 7.484919 2.367944) (xy 7.530731 2.367064) (xy 7.556500 2.366906) (xy 7.628812 2.368273) (xy 7.688323 2.373558) (xy 7.738893 2.383646) (xy 7.784381 2.399420)
     (xy 7.828646 2.421765) (xy 7.848600 2.433825) (xy 7.895167 2.463161) (xy 7.909726 2.444430) (xy 7.919300 2.430239) (xy 7.917862 2.421578) (xy 7.909726 2.414432) (xy 7.894465 2.404577)
     (xy 7.870014 2.390714) (xy 7.848600 2.379420) (xy 7.757431 2.342225) (xy 7.660829 2.319986) (xy 7.560978 2.312536) (xy 7.460060 2.319706) (xy 7.360259 2.341329) (xy 7.263759 2.377237)
     (xy 7.172743 2.427262) (xy 7.165784 2.431856) (xy 7.099365 2.486179) (xy 7.042313 2.552936) (xy 6.995250 2.630060) (xy 6.958797 2.715484) (xy 6.933577 2.807142) (xy 6.920212 2.902965)
     (xy 6.919324 3.000889) (xy 6.829229 3.000889) (xy 6.826809 2.969078) (xy 6.832526 2.859536) (xy 6.851985 2.753450) (xy 6.884758 2.652701) (xy 6.930418 2.559170) (xy 6.988538 2.474738)
     (xy 7.032145 2.426278) (xy 7.106722 2.362710) (xy 7.190434 2.310725) (xy 7.281222 2.270429) (xy 7.377022 2.241931) (xy 7.475776 2.225338) (xy 7.575422 2.220758) (xy 7.673899 2.228298) )(layer F.SilkS) (width  0.010000)
  )
  (fp_poly (pts (xy -6.147586 2.235498) (xy -6.080651 2.236340) (xy -6.018488 2.237649) (xy -5.963960 2.239348) (xy -5.919932 2.241359) (xy -5.889269 2.243604) (xy -5.884111 2.244182) (xy -5.789205 2.262576)
     (xy -5.704202 2.292381) (xy -5.630083 2.332921) (xy -5.567828 2.383517) (xy -5.518417 2.443492) (xy -5.482831 2.512167) (xy -5.478124 2.524953) (xy -5.464759 2.577624) (xy -5.456566 2.640025)
     (xy -5.453859 2.705664) (xy -5.456948 2.768050) (xy -5.464261 2.813230) (xy -5.491485 2.895192) (xy -5.531986 2.966919) (xy -5.585468 3.027960) (xy -5.625876 3.060855) (xy -5.683459 3.096355)
     (xy -5.746676 3.123997) (xy -5.817717 3.144299) (xy -5.898776 3.157783) (xy -5.992044 3.164967) (xy -6.071709 3.166533) (xy -6.206066 3.166533) (xy -6.206066 3.666066) (xy -6.477000 3.666066)
     (xy -6.477000 2.328333) (xy -6.383867 2.328333) (xy -6.383867 3.581400) (xy -6.290733 3.581400) (xy -6.290733 3.137706) (xy -6.236611 3.081866) (xy -6.130322 3.081720) (xy -6.020429 3.078731)
     (xy -5.924927 3.069867) (xy -5.842209 3.054800) (xy -5.770666 3.033198) (xy -5.708689 3.004731) (xy -5.684297 2.990114) (xy -5.633934 2.947724) (xy -5.593833 2.893257) (xy -5.565012 2.828824)
     (xy -5.548488 2.756535) (xy -5.544776 2.700739) (xy -5.547078 2.644588) (xy -5.555440 2.596317) (xy -5.571635 2.548444) (xy -5.590717 2.506824) (xy -5.617743 2.462953) (xy -5.652471 2.427468)
     (xy -5.698142 2.397640) (xy -5.747550 2.374874) (xy -5.781772 2.361816) (xy -5.814462 2.351404) (xy -5.848121 2.343350) (xy -5.885249 2.337367) (xy -5.928347 2.333165) (xy -5.979915 2.330458)
     (xy -6.042452 2.328957) (xy -6.118459 2.328374) (xy -6.151587 2.328333) (xy -6.383867 2.328333) (xy -6.477000 2.328333) (xy -6.477000 2.235200) (xy -6.216428 2.235200) (xy -6.147586 2.235498) )(layer F.SilkS) (width  0.010000)
  )
  (fp_poly (pts (xy -4.446366 2.237134) (xy -4.308032 2.239433) (xy -4.033676 2.937933) (xy -3.992908 3.041754) (xy -3.953863 3.141240) (xy -3.916991 3.235238) (xy -3.882745 3.322597) (xy -3.851575 3.402162)
     (xy -3.823932 3.472784) (xy -3.800268 3.533308) (xy -3.781033 3.582582) (xy -3.766679 3.619455) (xy -3.757656 3.642773) (xy -3.754456 3.651250) (xy -3.753762 3.657045) (xy -3.757740 3.661102)
     (xy -3.768818 3.663726) (xy -3.789422 3.665223) (xy -3.821979 3.665901) (xy -3.868916 3.666066) (xy -3.871787 3.666066) (xy -3.926613 3.665555) (xy -3.967323 3.663181) (xy -3.996722 3.657680)
     (xy -4.017617 3.647793) (xy -4.032814 3.632256) (xy -4.045119 3.609808) (xy -4.055787 3.583324) (xy -4.067963 3.550708) (xy -4.084415 3.506206) (xy -4.104541 3.451479) (xy -4.127739 3.388186)
     (xy -4.153405 3.317987) (xy -4.180937 3.242542) (xy -4.209732 3.163510) (xy -4.239188 3.082550) (xy -4.268701 3.001323) (xy -4.297670 2.921488) (xy -4.325491 2.844704) (xy -4.351561 2.772633)
     (xy -4.375278 2.706932) (xy -4.396039 2.649262) (xy -4.413242 2.601282) (xy -4.426283 2.564652) (xy -4.434560 2.541032) (xy -4.437269 2.532886) (xy -4.448138 2.496139) (xy -4.466789 2.558286)
     (xy -4.473007 2.577257) (xy -4.484509 2.610546) (xy -4.500730 2.656580) (xy -4.521106 2.713785) (xy -4.545072 2.780588) (xy -4.572064 2.855416) (xy -4.601517 2.936695) (xy -4.632866 3.022852)
     (xy -4.665547 3.112314) (xy -4.668349 3.119966) (xy -4.706430 3.223791) (xy -4.739257 3.312837) (xy -4.767290 3.388262) (xy -4.790993 3.451225) (xy -4.810828 3.502887) (xy -4.827256 3.544405)
     (xy -4.840741 3.576940) (xy -4.851744 3.601650) (xy -4.860728 3.619695) (xy -4.868156 3.632234) (xy -4.874489 3.640425) (xy -4.876862 3.642783) (xy -4.887345 3.651876) (xy -4.897498 3.658227)
     (xy -4.910443 3.662328) (xy -4.929300 3.664671) (xy -4.957190 3.665748) (xy -4.997234 3.666051) (xy -5.024528 3.666066) (xy -5.146589 3.666066) (xy -5.119163 3.596216) (xy -5.113347 3.581400)
     (xy -5.011508 3.581400) (xy -4.979057 3.581400) (xy -4.955801 3.578819) (xy -4.939786 3.572448) (xy -4.938085 3.570816) (xy -4.933769 3.561218) (xy -4.924293 3.537322) (xy -4.910254 3.500757)
     (xy -4.892250 3.453150) (xy -4.870879 3.396129) (xy -4.846737 3.331321) (xy -4.820422 3.260353) (xy -4.792533 3.184855) (xy -4.763666 3.106451) (xy -4.734419 3.026771) (xy -4.705390 2.947442)
     (xy -4.677176 2.870092) (xy -4.650375 2.796347) (xy -4.625584 2.727835) (xy -4.603401 2.666184) (xy -4.584424 2.613022) (xy -4.569250 2.569975) (xy -4.558476 2.538672) (xy -4.553393 2.523066)
     (xy -4.532783 2.471875) (xy -4.507033 2.436681) (xy -4.475961 2.417290) (xy -4.449291 2.413000) (xy -4.425418 2.415250) (xy -4.406459 2.424323) (xy -4.385284 2.443700) (xy -4.384279 2.444750)
     (xy -4.365219 2.468453) (xy -4.351400 2.492381) (xy -4.348017 2.501900) (xy -4.344314 2.513369) (xy -4.335388 2.539086) (xy -4.321839 2.577399) (xy -4.304267 2.626655) (xy -4.283271 2.685201)
     (xy -4.259452 2.751385) (xy -4.233409 2.823554) (xy -4.205743 2.900056) (xy -4.177052 2.979238) (xy -4.147937 3.059447) (xy -4.118998 3.139031) (xy -4.090834 3.216338) (xy -4.064045 3.289714)
     (xy -4.039231 3.357506) (xy -4.016992 3.418064) (xy -3.997927 3.469733) (xy -3.982637 3.510861) (xy -3.971721 3.539796) (xy -3.966200 3.553883) (xy -3.956773 3.571804) (xy -3.944176 3.579632)
     (xy -3.921716 3.581398) (xy -3.920499 3.581400) (xy -3.899125 3.580146) (xy -3.887138 3.577011) (xy -3.886200 3.575685) (xy -3.889213 3.567198) (xy -3.897880 3.544380) (xy -3.911645 3.508652)
     (xy -3.929951 3.461437) (xy -3.952239 3.404156) (xy -3.977954 3.338231) (xy -4.006538 3.265083) (xy -4.037433 3.186135) (xy -4.070083 3.102808) (xy -4.103931 3.016524) (xy -4.138419 2.928704)
     (xy -4.172991 2.840771) (xy -4.207089 2.754146) (xy -4.240156 2.670251) (xy -4.271635 2.590508) (xy -4.300969 2.516338) (xy -4.327600 2.449163) (xy -4.330193 2.442633) (xy -4.373910 2.332566)
     (xy -4.446528 2.330135) (xy -4.485307 2.329657) (xy -4.509567 2.331522) (xy -4.521597 2.335984) (xy -4.523517 2.338602) (xy -4.530702 2.356674) (xy -4.543273 2.388461) (xy -4.560615 2.432403)
     (xy -4.582117 2.486942) (xy -4.607164 2.550519) (xy -4.635145 2.621577) (xy -4.665446 2.698555) (xy -4.697454 2.779896) (xy -4.730557 2.864041) (xy -4.764141 2.949432) (xy -4.797593 3.034510)
     (xy -4.830301 3.117716) (xy -4.861652 3.197492) (xy -4.891033 3.272279) (xy -4.917831 3.340519) (xy -4.941433 3.400653) (xy -4.961226 3.451122) (xy -4.976596 3.490368) (xy -4.986933 3.516833)
     (xy -4.991442 3.528483) (xy -5.011508 3.581400) (xy -5.113347 3.581400) (xy -5.111802 3.577466) (xy -5.098778 3.544294) (xy -5.080619 3.498038) (xy -5.057849 3.440040) (xy -5.030995 3.371639)
     (xy -5.000583 3.294173) (xy -4.967139 3.208984) (xy -4.931188 3.117411) (xy -4.893257 3.020794) (xy -4.853872 2.920472) (xy -4.838219 2.880600) (xy -4.584700 2.234834) (xy -4.446366 2.237134) )(layer F.SilkS) (width  0.010000)
  )
  (fp_poly (pts (xy -0.636864 2.343150) (xy -0.639233 2.451100) (xy -0.954617 2.453320) (xy -1.270000 2.455539) (xy -1.270000 2.844800) (xy -0.770467 2.844800) (xy -0.770467 3.048000) (xy -1.270000 3.048000)
     (xy -1.270000 3.454400) (xy -0.635000 3.454400) (xy -0.635000 3.666066) (xy -1.540933 3.666066) (xy -1.540933 2.328333) (xy -1.456267 2.328333) (xy -1.456267 3.581400) (xy -0.728133 3.581400)
     (xy -0.728133 3.539066) (xy -1.300545 3.539066) (xy -1.329722 3.508953) (xy -1.358900 3.478840) (xy -1.358900 3.023530) (xy -1.329722 2.993431) (xy -1.300545 2.963333) (xy -1.082072 2.963333)
     (xy -1.015699 2.963290) (xy -0.964337 2.963063) (xy -0.926064 2.962502) (xy -0.898956 2.961458) (xy -0.881091 2.959782) (xy -0.870548 2.957325) (xy -0.865402 2.953939) (xy -0.863733 2.949474)
     (xy -0.863600 2.946400) (xy -0.864143 2.941299) (xy -0.867043 2.937341) (xy -0.874203 2.934380) (xy -0.887528 2.932273) (xy -0.908922 2.930875) (xy -0.940289 2.930039) (xy -0.983533 2.929623)
     (xy -1.040559 2.929481) (xy -1.086306 2.929466) (xy -1.309011 2.929466) (xy -1.336809 2.900787) (xy -1.364607 2.872107) (xy -1.361753 2.647246) (xy -1.358900 2.422385) (xy -1.329722 2.392293)
     (xy -1.300545 2.362200) (xy -0.728133 2.362200) (xy -0.728133 2.340046) (xy -0.730331 2.324374) (xy -0.739887 2.321406) (xy -0.747183 2.322997) (xy -0.759596 2.324110) (xy -0.787033 2.325144)
     (xy -0.827586 2.326074) (xy -0.879346 2.326871) (xy -0.940404 2.327507) (xy -1.008852 2.327956) (xy -1.082780 2.328191) (xy -1.111250 2.328218) (xy -1.456267 2.328333) (xy -1.540933 2.328333)
     (xy -1.540933 2.235200) (xy -0.634494 2.235200) (xy -0.636864 2.343150) )(layer F.SilkS) (width  0.010000)
  )
  (fp_poly (pts (xy 0.147797 2.235856) (xy 0.188476 2.237668) (xy 0.219740 2.240406) (xy 0.238094 2.243835) (xy 0.239502 2.244388) (xy 0.257608 2.257966) (xy 0.274422 2.278585) (xy 0.275510 2.280371)
     (xy 0.288648 2.303364) (xy 0.307988 2.338274) (xy 0.332650 2.383443) (xy 0.361756 2.437211) (xy 0.394424 2.497920) (xy 0.429775 2.563911) (xy 0.466931 2.633523) (xy 0.505010 2.705099)
     (xy 0.543133 2.776980) (xy 0.580421 2.847505) (xy 0.615993 2.915016) (xy 0.648971 2.977855) (xy 0.678474 3.034361) (xy 0.703623 3.082876) (xy 0.723538 3.121740) (xy 0.737339 3.149295)
     (xy 0.744147 3.163882) (xy 0.744547 3.164959) (xy 0.756187 3.200228) (xy 0.795845 3.117764) (xy 0.805958 3.097565) (xy 0.823083 3.064314) (xy 0.846228 3.019882) (xy 0.874400 2.966138)
     (xy 0.906605 2.904953) (xy 0.941850 2.838197) (xy 0.979143 2.767738) (xy 1.017490 2.695449) (xy 1.055899 2.623197) (xy 1.093377 2.552854) (xy 1.128930 2.486290) (xy 1.161565 2.425374)
     (xy 1.190291 2.371976) (xy 1.214112 2.327967) (xy 1.232038 2.295216) (xy 1.242757 2.276138) (xy 1.253608 2.260995) (xy 1.267684 2.250040) (xy 1.287685 2.242627) (xy 1.316314 2.238113)
     (xy 1.356273 2.235853) (xy 1.410262 2.235202) (xy 1.414332 2.235200) (xy 1.532467 2.235200) (xy 1.532467 3.666066) (xy 1.295400 3.666066) (xy 1.295313 3.155950) (xy 1.295225 2.645833)
     (xy 1.085402 3.039533) (xy 1.044912 3.115433) (xy 1.006532 3.187236) (xy 0.971053 3.253473) (xy 0.939264 3.312674) (xy 0.911958 3.363371) (xy 0.889924 3.404092) (xy 0.873954 3.433370)
     (xy 0.864837 3.449734) (xy 0.863318 3.452286) (xy 0.839233 3.475370) (xy 0.804867 3.490453) (xy 0.765228 3.496819) (xy 0.725322 3.493751) (xy 0.690154 3.480535) (xy 0.685670 3.477683)
     (xy 0.677962 3.470832) (xy 0.668117 3.458854) (xy 0.655494 3.440642) (xy 0.639451 3.415091) (xy 0.619344 3.381092) (xy 0.594533 3.337539) (xy 0.564375 3.283324) (xy 0.528227 3.217342)
     (xy 0.485449 3.138485) (xy 0.439829 3.053883) (xy 0.398768 2.977626) (xy 0.360121 2.905945) (xy 0.324632 2.840209) (xy 0.293041 2.781788) (xy 0.266090 2.732051) (xy 0.244519 2.692366)
     (xy 0.229072 2.664103) (xy 0.220489 2.648632) (xy 0.218961 2.646069) (xy 0.218451 2.653735) (xy 0.218040 2.676888) (xy 0.217730 2.714080) (xy 0.217524 2.763865) (xy 0.217425 2.824797)
     (xy 0.217433 2.895428) (xy 0.217552 2.974313) (xy 0.217784 3.060004) (xy 0.218131 3.151055) (xy 0.218146 3.154536) (xy 0.220393 3.666066) (xy -0.016933 3.666066) (xy -0.016933 2.319866)
     (xy 0.067734 2.319866) (xy 0.067734 3.581400) (xy 0.137103 3.581400) (xy 0.134440 3.090605) (xy 0.131778 2.599810) (xy 0.156373 2.574138) (xy 0.177995 2.556122) (xy 0.201569 2.549119)
     (xy 0.216499 2.548466) (xy 0.240381 2.550471) (xy 0.258359 2.558887) (xy 0.277629 2.577323) (xy 0.280532 2.580563) (xy 0.289968 2.594121) (xy 0.306461 2.621114) (xy 0.329151 2.660012)
     (xy 0.357177 2.709282) (xy 0.389677 2.767392) (xy 0.425792 2.832810) (xy 0.464659 2.904005) (xy 0.505418 2.979444) (xy 0.520700 3.007927) (xy 0.567211 3.094750) (xy 0.606447 3.167826)
     (xy 0.639125 3.228343) (xy 0.665957 3.277484) (xy 0.687658 3.316436) (xy 0.704943 3.346382) (xy 0.718526 3.368509) (xy 0.729121 3.384002) (xy 0.737442 3.394046) (xy 0.744205 3.399825)
     (xy 0.750122 3.402526) (xy 0.755910 3.403333) (xy 0.759054 3.403398) (xy 0.765005 3.403219) (xy 0.770694 3.401801) (xy 0.776829 3.397964) (xy 0.784116 3.390532) (xy 0.793263 3.378323)
     (xy 0.804977 3.360161) (xy 0.819965 3.334866) (xy 0.838934 3.301260) (xy 0.862591 3.258163) (xy 0.891643 3.204398) (xy 0.926797 3.138785) (xy 0.968761 3.060147) (xy 0.998925 3.003550)
     (xy 1.040136 2.926619) (xy 1.079708 2.853525) (xy 1.116798 2.785769) (xy 1.150566 2.724852) (xy 1.180170 2.672276) (xy 1.204768 2.629542) (xy 1.223521 2.598152) (xy 1.235586 2.579607)
     (xy 1.238482 2.575983) (xy 1.269676 2.553513) (xy 1.303137 2.546875) (xy 1.336005 2.556117) (xy 1.358936 2.573904) (xy 1.383307 2.599342) (xy 1.380956 3.090371) (xy 1.378606 3.581400)
     (xy 1.447800 3.581400) (xy 1.447800 2.319866) (xy 1.394385 2.319866) (xy 1.363713 2.321493) (xy 1.338718 2.325727) (xy 1.326813 2.330450) (xy 1.320405 2.339620) (xy 1.307003 2.362117)
     (xy 1.287496 2.396287) (xy 1.262779 2.440471) (xy 1.233741 2.493014) (xy 1.201276 2.552259) (xy 1.166274 2.616550) (xy 1.129628 2.684229) (xy 1.092230 2.753642) (xy 1.054970 2.823130)
     (xy 1.018741 2.891038) (xy 0.984436 2.955710) (xy 0.952944 3.015488) (xy 0.925159 3.068716) (xy 0.901972 3.113738) (xy 0.884274 3.148898) (xy 0.872958 3.172538) (xy 0.870743 3.177609)
     (xy 0.854012 3.209891) (xy 0.832550 3.241417) (xy 0.822435 3.253316) (xy 0.801207 3.273191) (xy 0.782421 3.282606) (xy 0.758936 3.285063) (xy 0.757709 3.285066) (xy 0.732167 3.281159)
     (xy 0.709048 3.268231) (xy 0.686669 3.244472) (xy 0.663347 3.208072) (xy 0.637399 3.157223) (xy 0.635958 3.154176) (xy 0.621238 3.124031) (xy 0.600543 3.083227) (xy 0.574784 3.033446)
     (xy 0.544872 2.976372) (xy 0.511718 2.913691) (xy 0.476233 2.847085) (xy 0.439328 2.778239) (xy 0.401914 2.708838) (xy 0.364902 2.640565) (xy 0.329202 2.575104) (xy 0.295727 2.514139)
     (xy 0.265386 2.459355) (xy 0.239091 2.412436) (xy 0.217754 2.375065) (xy 0.202284 2.348927) (xy 0.193593 2.335706) (xy 0.192664 2.334683) (xy 0.175663 2.325359) (xy 0.148990 2.320746)
     (xy 0.121829 2.319866) (xy 0.067734 2.319866) (xy -0.016933 2.319866) (xy -0.016933 2.235200) (xy 0.101202 2.235200) (xy 0.147797 2.235856) )(layer F.SilkS) (width  0.010000)
  )
  (fp_poly (pts (xy 3.187559 2.944283) (xy 3.228484 3.048695) (xy 3.267667 3.148610) (xy 3.304666 3.242904) (xy 3.339037 3.330450) (xy 3.370339 3.410121) (xy 3.398127 3.480791) (xy 3.421959 3.541334)
     (xy 3.441393 3.590623) (xy 3.455984 3.627533) (xy 3.465291 3.650937) (xy 3.468871 3.659708) (xy 3.468876 3.659716) (xy 3.462170 3.661952) (xy 3.441394 3.663843) (xy 3.409409 3.665237)
     (xy 3.369077 3.665983) (xy 3.349200 3.666066) (xy 3.301198 3.665978) (xy 3.267036 3.665389) (xy 3.243618 3.663814) (xy 3.227850 3.660767) (xy 3.216639 3.655763) (xy 3.206889 3.648317)
     (xy 3.200789 3.642783) (xy 3.194653 3.635749) (xy 3.187518 3.624531) (xy 3.178913 3.607953) (xy 3.168371 3.584837) (xy 3.155423 3.554009) (xy 3.139600 3.514290) (xy 3.120433 3.464505)
     (xy 3.097453 3.403477) (xy 3.070193 3.330029) (xy 3.038183 3.242986) (xy 3.000954 3.141169) (xy 3.000941 3.141133) (xy 2.968644 3.052529) (xy 2.937344 2.966460) (xy 2.907655 2.884632)
     (xy 2.880193 2.808750) (xy 2.855574 2.740518) (xy 2.834413 2.681643) (xy 2.817324 2.633829) (xy 2.804925 2.598781) (xy 2.798591 2.580478) (xy 2.770811 2.498190) (xy 2.757538 2.544848)
     (xy 2.752345 2.560874) (xy 2.741858 2.591310) (xy 2.726611 2.634669) (xy 2.707135 2.689461) (xy 2.683966 2.754198) (xy 2.657634 2.827391) (xy 2.628675 2.907552) (xy 2.597620 2.993193)
     (xy 2.565003 3.082824) (xy 2.556733 3.105503) (xy 2.517900 3.211739) (xy 2.484312 3.303139) (xy 2.455532 3.380814) (xy 2.431117 3.445876) (xy 2.410629 3.499440) (xy 2.393629 3.542618)
     (xy 2.379675 3.576522) (xy 2.368329 3.602265) (xy 2.359150 3.620960) (xy 2.351699 3.633720) (xy 2.345536 3.641658) (xy 2.344400 3.642783) (xy 2.334309 3.651828) (xy 2.324485 3.658162)
     (xy 2.311852 3.662268) (xy 2.293332 3.664629) (xy 2.265849 3.665728) (xy 2.226328 3.666048) (xy 2.196061 3.666066) (xy 2.146017 3.665740) (xy 2.110988 3.664647) (xy 2.089066 3.662619)
     (xy 2.078342 3.659487) (xy 2.076728 3.655483) (xy 2.080343 3.646302) (xy 2.089610 3.622738) (xy 2.103989 3.586170) (xy 2.107938 3.576124) (xy 2.213006 3.576124) (xy 2.222233 3.580443)
     (xy 2.242798 3.581400) (xy 2.270006 3.578111) (xy 2.284249 3.567593) (xy 2.284820 3.566583) (xy 2.289537 3.555255) (xy 2.299407 3.529671) (xy 2.313817 3.491499) (xy 2.332159 3.442405)
     (xy 2.353822 3.384056) (xy 2.378196 3.318121) (xy 2.404672 3.246266) (xy 2.432638 3.170159) (xy 2.461486 3.091465) (xy 2.490604 3.011854) (xy 2.519383 2.932992) (xy 2.547213 2.856546)
     (xy 2.573484 2.784183) (xy 2.597585 2.717571) (xy 2.618907 2.658376) (xy 2.636839 2.608267) (xy 2.650772 2.568910) (xy 2.660096 2.541972) (xy 2.663203 2.532527) (xy 2.684159 2.479348)
     (xy 2.708963 2.442136) (xy 2.738213 2.420237) (xy 2.772507 2.413000) (xy 2.772834 2.413000) (xy 2.805960 2.419538) (xy 2.834107 2.439808) (xy 2.858175 2.474799) (xy 2.879065 2.525494)
     (xy 2.881035 2.531533) (xy 2.888868 2.554883) (xy 2.901448 2.590957) (xy 2.918177 2.638124) (xy 2.938457 2.694753) (xy 2.961691 2.759211) (xy 2.987279 2.829868) (xy 3.014624 2.905092)
     (xy 3.043128 2.983251) (xy 3.072192 3.062714) (xy 3.101219 3.141848) (xy 3.129611 3.219023) (xy 3.156768 3.292606) (xy 3.182094 3.360966) (xy 3.204990 3.422472) (xy 3.224858 3.475492)
     (xy 3.241100 3.518394) (xy 3.253117 3.549547) (xy 3.260312 3.567318) (xy 3.262011 3.570816) (xy 3.275168 3.577603) (xy 3.297573 3.581218) (xy 3.303943 3.581400) (xy 3.326467 3.579556)
     (xy 3.333900 3.573673) (xy 3.333318 3.570816) (xy 3.329596 3.561435) (xy 3.320157 3.537519) (xy 3.305482 3.500290) (xy 3.286053 3.450971) (xy 3.262350 3.390785) (xy 3.234857 3.320954)
     (xy 3.204053 3.242702) (xy 3.170421 3.157251) (xy 3.134442 3.065823) (xy 3.096597 2.969642) (xy 3.087452 2.946400) (xy 2.845947 2.332566) (xy 2.698076 2.332566) (xy 2.458271 2.942166)
     (xy 2.420162 3.039071) (xy 2.383796 3.131603) (xy 2.349657 3.218523) (xy 2.318232 3.298593) (xy 2.290005 3.370575) (xy 2.265462 3.433230) (xy 2.245088 3.485322) (xy 2.229368 3.525611)
     (xy 2.218787 3.552859) (xy 2.213831 3.565828) (xy 2.213562 3.566583) (xy 2.213006 3.576124) (xy 2.107938 3.576124) (xy 2.122937 3.537975) (xy 2.145912 3.479532) (xy 2.172374 3.412217)
     (xy 2.201780 3.337409) (xy 2.233590 3.256485) (xy 2.267261 3.170824) (xy 2.302253 3.081802) (xy 2.338023 2.990798) (xy 2.374030 2.899190) (xy 2.409733 2.808355) (xy 2.444589 2.719670)
     (xy 2.478058 2.634514) (xy 2.509598 2.554265) (xy 2.538668 2.480300) (xy 2.564725 2.413996) (xy 2.587229 2.356733) (xy 2.605637 2.309886) (xy 2.619409 2.274835) (xy 2.628002 2.252957)
     (xy 2.630817 2.245783) (xy 2.637303 2.241536) (xy 2.654099 2.238485) (xy 2.682933 2.236500) (xy 2.725532 2.235451) (xy 2.772322 2.235200) (xy 2.909699 2.235200) (xy 3.187559 2.944283) )(layer F.SilkS) (width  0.010000)
  )
  (fp_poly (pts (xy 4.138819 2.235588) (xy 4.167751 2.237137) (xy 4.187283 2.240421) (xy 4.201177 2.246015) (xy 4.210910 2.252657) (xy 4.219733 2.262111) (xy 4.238072 2.283801) (xy 4.265033 2.316613)
     (xy 4.299722 2.359427) (xy 4.341243 2.411128) (xy 4.388701 2.470599) (xy 4.441202 2.536722) (xy 4.497851 2.608381) (xy 4.557753 2.684458) (xy 4.602602 2.741607) (xy 4.663846 2.819745)
     (xy 4.722065 2.894002) (xy 4.776411 2.963300) (xy 4.826038 3.026558) (xy 4.870099 3.082699) (xy 4.907747 3.130643) (xy 4.938136 3.169313) (xy 4.960418 3.197628) (xy 4.973748 3.214511)
     (xy 4.977368 3.219031) (xy 4.978283 3.211908) (xy 4.979072 3.189310) (xy 4.979723 3.152698) (xy 4.980230 3.103531) (xy 4.980582 3.043266) (xy 4.980771 2.973363) (xy 4.980788 2.895281)
     (xy 4.980625 2.810479) (xy 4.980319 2.730081) (xy 4.978004 2.235200) (xy 5.215467 2.235200) (xy 5.215467 3.666066) (xy 5.124217 3.666066) (xy 5.077511 3.665272) (xy 5.045000 3.662685)
     (xy 5.024012 3.657997) (xy 5.015023 3.653497) (xy 5.007928 3.645632) (xy 4.991387 3.625738) (xy 4.966419 3.595100) (xy 4.934042 3.555003) (xy 4.895276 3.506731) (xy 4.851138 3.451568)
     (xy 4.802650 3.390799) (xy 4.750828 3.325707) (xy 4.696691 3.257578) (xy 4.641260 3.187695) (xy 4.585552 3.117343) (xy 4.530586 3.047806) (xy 4.477382 2.980369) (xy 4.426958 2.916315)
     (xy 4.380332 2.856930) (xy 4.338525 2.803497) (xy 4.302554 2.757301) (xy 4.273439 2.719626) (xy 4.254500 2.694809) (xy 4.252497 2.700201) (xy 4.250869 2.722205) (xy 4.249615 2.760868)
     (xy 4.248735 2.816236) (xy 4.248227 2.888358) (xy 4.248092 2.977279) (xy 4.248329 3.083047) (xy 4.248758 3.174835) (xy 4.251482 3.666066) (xy 4.004734 3.666066) (xy 4.004734 2.328333)
     (xy 4.097867 2.328333) (xy 4.097867 3.581400) (xy 4.157134 3.581400) (xy 4.157134 2.655106) (xy 4.184194 2.627186) (xy 4.205928 2.608426) (xy 4.227439 2.600457) (xy 4.245896 2.599266)
     (xy 4.266704 2.600873) (xy 4.283735 2.607649) (xy 4.302348 2.622529) (xy 4.319326 2.639483) (xy 4.331249 2.653103) (xy 4.352573 2.678840) (xy 4.382304 2.715449) (xy 4.419445 2.761679)
     (xy 4.463004 2.816284) (xy 4.511985 2.878014) (xy 4.565393 2.945623) (xy 4.622233 3.017861) (xy 4.681512 3.093481) (xy 4.698913 3.115733) (xy 4.757979 3.191204) (xy 4.814309 3.262983)
     (xy 4.866984 3.329913) (xy 4.915087 3.390837) (xy 4.957699 3.444597) (xy 4.993902 3.490035) (xy 5.022778 3.525994) (xy 5.043409 3.551316) (xy 5.054875 3.564844) (xy 5.056560 3.566583)
     (xy 5.076849 3.577034) (xy 5.102029 3.581400) (xy 5.130800 3.581400) (xy 5.130800 2.328333) (xy 5.071533 2.328333) (xy 5.071533 3.254627) (xy 5.044473 3.282547) (xy 5.022881 3.301236)
     (xy 5.001516 3.309215) (xy 4.982201 3.310466) (xy 4.962252 3.309142) (xy 4.946152 3.303301) (xy 4.929050 3.290137) (xy 4.906095 3.266848) (xy 4.905315 3.266016) (xy 4.883524 3.241567)
     (xy 4.855205 3.208078) (xy 4.824062 3.170003) (xy 4.794472 3.132666) (xy 4.758949 3.087091) (xy 4.718388 3.035209) (xy 4.671787 2.975746) (xy 4.618147 2.907426) (xy 4.556466 2.828974)
     (xy 4.485745 2.739117) (xy 4.449234 2.692753) (xy 4.416452 2.651061) (xy 4.386247 2.612513) (xy 4.360590 2.579635) (xy 4.341449 2.554952) (xy 4.330798 2.540990) (xy 4.330700 2.540857)
     (xy 4.319312 2.525911) (xy 4.299871 2.500867) (xy 4.274851 2.468892) (xy 4.246724 2.433155) (xy 4.238818 2.423146) (xy 4.209152 2.385869) (xy 4.187559 2.359909) (xy 4.171713 2.343224)
     (xy 4.159285 2.333767) (xy 4.147948 2.329496) (xy 4.135376 2.328366) (xy 4.130868 2.328333) (xy 4.097867 2.328333) (xy 4.004734 2.328333) (xy 4.004734 2.235200) (xy 4.096725 2.235200)
     (xy 4.138819 2.235588) )(layer F.SilkS) (width  0.010000)
  )
  (fp_poly (pts (xy 6.197600 3.666066) (xy 5.926667 3.666066) (xy 5.926667 2.319866) (xy 6.011333 2.319866) (xy 6.011333 3.581400) (xy 6.112933 3.581400) (xy 6.112933 2.319866) (xy 6.011333 2.319866)
     (xy 5.926667 2.319866) (xy 5.926667 2.235200) (xy 6.197600 2.235200) (xy 6.197600 3.666066) )(layer F.SilkS) (width  0.010000)
  )
  (fp_poly (pts (xy -0.615544 -0.277070) (xy -0.467300 -0.144795) (xy -0.310972 -0.027378) (xy -0.146675 0.075118) (xy 0.025480 0.162631) (xy 0.205381 0.235099) (xy 0.392914 0.292458) (xy 0.423334 0.300159)
     (xy 0.513166 0.320791) (xy 0.596427 0.336430) (xy 0.677865 0.347615) (xy 0.762223 0.354884) (xy 0.854247 0.358775) (xy 0.949577 0.359833) (xy 1.004206 0.360133) (xy 1.052395 0.360974)
     (xy 1.091833 0.362268) (xy 1.120213 0.363926) (xy 1.135226 0.365860) (xy 1.136957 0.366998) (xy 1.127285 0.375618) (xy 1.105758 0.391127) (xy 1.075090 0.411778) (xy 1.037994 0.435827)
     (xy 0.997182 0.461527) (xy 0.955367 0.487133) (xy 0.915262 0.510901) (xy 0.897053 0.521348) (xy 0.736208 0.602964) (xy 0.566405 0.671186) (xy 0.389568 0.725598) (xy 0.207620 0.765780)
     (xy 0.022484 0.791313) (xy -0.163914 0.801780) (xy -0.349653 0.796762) (xy -0.364067 0.795707) (xy -0.556413 0.772578) (xy -0.744846 0.733203) (xy -0.928455 0.678002) (xy -1.106331 0.607394)
     (xy -1.277565 0.521797) (xy -1.441247 0.421631) (xy -1.596467 0.307314) (xy -1.742316 0.179266) (xy -1.778216 0.144150) (xy -1.820482 0.100463) (xy -1.863582 0.053361) (xy -1.906103 0.004648)
     (xy -1.946631 -0.043869) (xy -1.983752 -0.090386) (xy -2.001011 -0.113207) (xy -1.831304 -0.113207) (xy -1.829014 -0.104221) (xy -1.816680 -0.085521) (xy -1.796236 -0.059361) (xy -1.769619 -0.027993)
     (xy -1.738763 0.006330) (xy -1.705605 0.041354) (xy -1.672079 0.074826) (xy -1.659467 0.086838) (xy -1.538336 0.190902) (xy -1.403999 0.288932) (xy -1.259703 0.378908) (xy -1.108693 0.458808)
     (xy -0.954214 0.526611) (xy -0.951711 0.527595) (xy -0.843384 0.565760) (xy -0.723861 0.600244) (xy -0.598715 0.629731) (xy -0.473519 0.652906) (xy -0.355600 0.668281) (xy -0.292956 0.672301)
     (xy -0.218924 0.673512) (xy -0.138789 0.672068) (xy -0.057837 0.668123) (xy 0.018649 0.661830) (xy 0.067734 0.655966) (xy 0.243154 0.624923) (xy 0.411089 0.581357) (xy 0.567267 0.527605)
     (xy 0.605252 0.512663) (xy 0.637470 0.499387) (xy 0.660603 0.489184) (xy 0.671334 0.483465) (xy 0.671459 0.483349) (xy 0.667288 0.479251) (xy 0.649898 0.474838) (xy 0.622958 0.471019)
     (xy 0.620659 0.470782) (xy 0.564314 0.463286) (xy 0.497095 0.451408) (xy 0.424150 0.436244) (xy 0.350629 0.418891) (xy 0.281680 0.400443) (xy 0.259636 0.393947) (xy 0.075266 0.329301)
     (xy -0.101813 0.249433) (xy -0.271120 0.154626) (xy -0.432170 0.045163) (xy -0.584480 -0.078672) (xy -0.650198 -0.139163) (xy -0.729413 -0.214893) (xy -0.921390 -0.192200) (xy -1.029298 -0.179826)
     (xy -1.137796 -0.168101) (xy -1.244862 -0.157200) (xy -1.348475 -0.147299) (xy -1.446613 -0.138574) (xy -1.537255 -0.131200) (xy -1.618379 -0.125352) (xy -1.687963 -0.121205) (xy -1.743986 -0.118936)
     (xy -1.770239 -0.118548) (xy -1.799490 -0.117787) (xy -1.821553 -0.115811) (xy -1.831304 -0.113207) (xy -2.001011 -0.113207) (xy -2.016054 -0.133097) (xy -2.042121 -0.170198) (xy -2.060542 -0.199883)
     (xy -2.069902 -0.220348) (xy -2.070103 -0.228595) (xy -2.059822 -0.232230) (xy -2.036249 -0.235067) (xy -2.003020 -0.236769) (xy -1.978583 -0.237106) (xy -1.912746 -0.238250) (xy -1.832460 -0.241496)
     (xy -1.740051 -0.246641) (xy -1.637848 -0.253484) (xy -1.528176 -0.261823) (xy -1.413364 -0.271458) (xy -1.295737 -0.282186) (xy -1.177622 -0.293806) (xy -1.061348 -0.306117) (xy -0.949241 -0.318916)
     (xy -0.843627 -0.332003) (xy -0.772177 -0.341592) (xy -0.693455 -0.352559) (xy -0.615544 -0.277070) )(layer F.SilkS) (width  0.010000)
  )
  (fp_poly (pts (xy 2.005547 -0.976021) (xy 2.001284 -0.953650) (xy 1.994017 -0.920834) (xy 1.984386 -0.880543) (xy 1.979562 -0.861210) (xy 1.955103 -0.773551) (xy 1.927079 -0.688876) (xy 1.896940 -0.611053)
     (xy 1.866134 -0.543949) (xy 1.848331 -0.511117) (xy 1.817985 -0.459201) (xy 1.745076 -0.453618) (xy 1.704686 -0.450985) (xy 1.651619 -0.448211) (xy 1.589075 -0.445400) (xy 1.520253 -0.442660)
     (xy 1.448352 -0.440097) (xy 1.376571 -0.437817) (xy 1.308110 -0.435926) (xy 1.246167 -0.434530) (xy 1.193943 -0.433737) (xy 1.154635 -0.433652) (xy 1.147234 -0.433753) (xy 1.098281 -0.434743)
     (xy 1.043683 -0.435983) (xy 0.993412 -0.437241) (xy 0.982134 -0.437548) (xy 0.915375 -0.440234) (xy 0.841107 -0.444618) (xy 0.764290 -0.450302) (xy 0.689881 -0.456885) (xy 0.622839 -0.463968)
     (xy 0.571500 -0.470645) (xy 0.523555 -0.478412) (xy 0.475239 -0.487411) (xy 0.429595 -0.496947) (xy 0.389666 -0.506320) (xy 0.358496 -0.514834) (xy 0.339129 -0.521791) (xy 0.334394 -0.524997)
     (xy 0.339492 -0.530295) (xy 0.357210 -0.536817) (xy 0.378769 -0.542075) (xy 0.530495 -0.574472) (xy 0.694279 -0.612251) (xy 0.866485 -0.654442) (xy 1.043477 -0.700070) (xy 1.221617 -0.748162)
     (xy 1.397270 -0.797746) (xy 1.566800 -0.847849) (xy 1.726568 -0.897498) (xy 1.816100 -0.926621) (xy 1.869115 -0.944003) (xy 1.916586 -0.959202) (xy 1.956223 -0.971513) (xy 1.985736 -0.980234)
     (xy 2.002835 -0.984661) (xy 2.006168 -0.984978) (xy 2.005547 -0.976021) )(layer F.SilkS) (width  0.010000)
  )
  (fp_poly (pts (xy -0.397460 -3.681431) (xy -0.400101 -3.675364) (xy -0.413830 -3.661044) (xy -0.436388 -3.640639) (xy -0.464234 -3.617355) (xy -0.520946 -3.568823) (xy -0.583499 -3.510844) (xy -0.647701 -3.447611)
     (xy -0.709362 -3.383319) (xy -0.764289 -3.322161) (xy -0.790606 -3.290771) (xy -0.888025 -3.159956) (xy -0.977856 -3.017718) (xy -1.058525 -2.867326) (xy -1.128463 -2.712052) (xy -1.186095 -2.555166)
     (xy -1.229851 -2.399937) (xy -1.239447 -2.357000) (xy -1.258429 -2.259361) (xy -1.272178 -2.170006) (xy -1.281320 -2.082840) (xy -1.286476 -1.991766) (xy -1.288272 -1.890689) (xy -1.288290 -1.879600)
     (xy -1.280416 -1.682423) (xy -1.256577 -1.490839) (xy -1.216711 -1.304620) (xy -1.160756 -1.123540) (xy -1.088651 -0.947372) (xy -1.000331 -0.775890) (xy -0.971499 -0.726709) (xy -0.917065 -0.636385)
     (xy -0.943249 -0.631540) (xy -0.962527 -0.628761) (xy -0.996061 -0.624767) (xy -1.041241 -0.619814) (xy -1.095453 -0.614156) (xy -1.156087 -0.608049) (xy -1.220529 -0.601747) (xy -1.286168 -0.595506)
     (xy -1.350391 -0.589581) (xy -1.410587 -0.584228) (xy -1.464143 -0.579701) (xy -1.508446 -0.576255) (xy -1.511635 -0.576025) (xy -1.550515 -0.573540) (xy -1.600250 -0.570823) (xy -1.658309 -0.567970)
     (xy -1.722164 -0.565077) (xy -1.789284 -0.562241) (xy -1.857140 -0.559559) (xy -1.923204 -0.557128) (xy -1.984944 -0.555043) (xy -2.039833 -0.553403) (xy -2.085339 -0.552302) (xy -2.118934 -0.551839)
     (xy -2.137833 -0.552095) (xy -2.160898 -0.553458) (xy -2.192149 -0.555370) (xy -2.211461 -0.556577) (xy -2.259689 -0.559618) (xy -2.278044 -0.607892) (xy -2.332931 -0.765125) (xy -2.375260 -0.916398)
     (xy -2.405924 -1.066039) (xy -2.425815 -1.218374) (xy -2.435620 -1.371600) (xy -2.435014 -1.447800) (xy -2.306944 -1.447800) (xy -2.306344 -1.368671) (xy -2.304091 -1.301189) (xy -2.299652 -1.240103)
     (xy -2.292494 -1.180164) (xy -2.282082 -1.116121) (xy -2.267884 -1.042725) (xy -2.263752 -1.022640) (xy -2.254507 -0.982084) (xy -2.242303 -0.934252) (xy -2.228166 -0.882616) (xy -2.213126 -0.830648)
     (xy -2.198208 -0.781823) (xy -2.184441 -0.739613) (xy -2.172852 -0.707490) (xy -2.165630 -0.690991) (xy -2.162029 -0.685764) (xy -2.156080 -0.681929) (xy -2.145590 -0.679367) (xy -2.128361 -0.677963)
     (xy -2.102200 -0.677598) (xy -2.064911 -0.678156) (xy -2.014299 -0.679519) (xy -1.973932 -0.680759) (xy -1.908874 -0.683014) (xy -1.839293 -0.685795) (xy -1.770608 -0.688861) (xy -1.708241 -0.691970)
     (xy -1.659467 -0.694763) (xy -1.620115 -0.697430) (xy -1.571993 -0.700992) (xy -1.517505 -0.705242) (xy -1.459056 -0.709972) (xy -1.399054 -0.714973) (xy -1.339901 -0.720038) (xy -1.284005 -0.724959)
     (xy -1.233770 -0.729528) (xy -1.191603 -0.733538) (xy -1.159907 -0.736780) (xy -1.141089 -0.739047) (xy -1.136888 -0.739913) (xy -1.139688 -0.747691) (xy -1.148771 -0.766895) (xy -1.162444 -0.794014)
     (xy -1.169217 -0.807049) (xy -1.218007 -0.908708) (xy -1.264321 -1.021499) (xy -1.306098 -1.139629) (xy -1.341280 -1.257300) (xy -1.366285 -1.361307) (xy -1.377897 -1.418542) (xy -1.387248 -1.468644)
     (xy -1.394576 -1.514528) (xy -1.400120 -1.559105) (xy -1.404118 -1.605291) (xy -1.406809 -1.655999) (xy -1.408432 -1.714142) (xy -1.409225 -1.782634) (xy -1.409426 -1.864390) (xy -1.409411 -1.888067)
     (xy -1.409226 -1.966573) (xy -1.408765 -2.030689) (xy -1.407903 -2.082958) (xy -1.406511 -2.125924) (xy -1.404463 -2.162128) (xy -1.401630 -2.194115) (xy -1.397886 -2.224427) (xy -1.393103 -2.255607)
     (xy -1.390113 -2.273300) (xy -1.348661 -2.469451) (xy -1.293586 -2.655874) (xy -1.224510 -2.833389) (xy -1.141056 -3.002817) (xy -1.042847 -3.164976) (xy -0.929504 -3.320688) (xy -0.881234 -3.379707)
     (xy -0.804953 -3.470114) (xy -0.861793 -3.450550) (xy -1.008930 -3.393717) (xy -1.154519 -3.325543) (xy -1.295676 -3.247777) (xy -1.429517 -3.162171) (xy -1.553158 -3.070476) (xy -1.663714 -2.974442)
     (xy -1.692940 -2.946007) (xy -1.796189 -2.832589) (xy -1.893612 -2.705452) (xy -1.983756 -2.567236) (xy -2.065170 -2.420581) (xy -2.136402 -2.268126) (xy -2.196000 -2.112511) (xy -2.242512 -1.956375)
     (xy -2.246868 -1.938867) (xy -2.267574 -1.849636) (xy -2.283157 -1.771163) (xy -2.294251 -1.698284) (xy -2.301488 -1.625830) (xy -2.305499 -1.548636) (xy -2.306916 -1.461535) (xy -2.306944 -1.447800)
     (xy -2.435014 -1.447800) (xy -2.434072 -1.566085) (xy -2.416040 -1.757828) (xy -2.381863 -1.945986) (xy -2.331884 -2.129717) (xy -2.266443 -2.308176) (xy -2.185883 -2.480520) (xy -2.090545 -2.645906)
     (xy -1.980770 -2.803491) (xy -1.856899 -2.952432) (xy -1.751665 -3.061142) (xy -1.605435 -3.191088) (xy -1.450351 -3.306658) (xy -1.286814 -3.407657) (xy -1.115224 -3.493890) (xy -0.935985 -3.565159)
     (xy -0.749496 -3.621271) (xy -0.556159 -3.662029) (xy -0.501567 -3.670560) (xy -0.462778 -3.675822) (xy -0.429951 -3.679621) (xy -0.406824 -3.681566) (xy -0.397460 -3.681431) )(layer F.SilkS) (width  0.010000)
  )
  (fp_poly (pts (xy 1.022758 -3.319696) (xy 1.037226 -3.313511) (xy 1.053652 -3.302932) (xy 1.074441 -3.288490) (xy 1.077236 -3.286595) (xy 1.190571 -3.203190) (xy 1.303976 -3.106583) (xy 1.414024 -3.000141)
     (xy 1.517285 -2.887228) (xy 1.610331 -2.771211) (xy 1.630817 -2.743200) (xy 1.730782 -2.591643) (xy 1.816048 -2.435770) (xy 1.886995 -2.274418) (xy 1.944000 -2.106426) (xy 1.987443 -1.930631)
     (xy 2.017702 -1.745871) (xy 2.035155 -1.550984) (xy 2.037818 -1.493931) (xy 2.042946 -1.358028) (xy 1.916823 -1.308912) (xy 1.758973 -1.249969) (xy 1.586977 -1.190418) (xy 1.403559 -1.131082)
     (xy 1.211447 -1.072785) (xy 1.013367 -1.016352) (xy 0.812043 -0.962607) (xy 0.610203 -0.912373) (xy 0.586766 -0.906784) (xy 0.526941 -0.892763) (xy 0.463004 -0.878096) (xy 0.397212 -0.863267)
     (xy 0.331820 -0.848766) (xy 0.269083 -0.835079) (xy 0.211257 -0.822693) (xy 0.160597 -0.812095) (xy 0.119358 -0.803773) (xy 0.089796 -0.798213) (xy 0.074167 -0.795903) (xy 0.073227 -0.795867)
     (xy 0.064905 -0.803414) (xy 0.051543 -0.824709) (xy 0.034279 -0.857737) (xy 0.014655 -0.899584) (xy -0.029131 -1.001183) (xy -0.067319 -1.099175) (xy -0.101240 -1.197689) (xy -0.132225 -1.300853)
     (xy -0.161607 -1.412795) (xy -0.189773 -1.533396) (xy -0.224285 -1.697083) (xy -0.251954 -1.847298) (xy -0.273090 -1.985918) (xy -0.288006 -2.114819) (xy -0.289987 -2.136368) (xy -0.291321 -2.141837)
     (xy -0.294844 -2.143726) (xy -0.301674 -2.141015) (xy -0.312925 -2.132680) (xy -0.329714 -2.117701) (xy -0.353156 -2.095056) (xy -0.384366 -2.063724) (xy -0.424462 -2.022681) (xy -0.474558 -1.970908)
     (xy -0.503767 -1.940613) (xy -0.552336 -1.890477) (xy -0.597135 -1.844761) (xy -0.636840 -1.804776) (xy -0.670129 -1.771831) (xy -0.695677 -1.747235) (xy -0.712164 -1.732297) (xy -0.718256 -1.728296)
     (xy -0.715474 -1.740367) (xy -0.703575 -1.764405) (xy -0.683625 -1.798847) (xy -0.656687 -1.842129) (xy -0.623827 -1.892688) (xy -0.586108 -1.948959) (xy -0.544595 -2.009380) (xy -0.500353 -2.072387)
     (xy -0.454445 -2.136415) (xy -0.407938 -2.199902) (xy -0.361894 -2.261284) (xy -0.317379 -2.318996) (xy -0.308114 -2.330770) (xy -0.247932 -2.402671) (xy -0.177109 -2.480136) (xy -0.099252 -2.559581)
     (xy -0.017969 -2.637419) (xy 0.063135 -2.710065) (xy 0.127000 -2.763266) (xy 0.195026 -2.815543) (xy 0.276098 -2.874072) (xy 0.368141 -2.937485) (xy 0.469080 -3.004414) (xy 0.576840 -3.073491)
     (xy 0.689345 -3.143349) (xy 0.804520 -3.212618) (xy 0.842434 -3.234923) (xy 0.895642 -3.266208) (xy 0.936384 -3.289924) (xy 0.967062 -3.306602) (xy 0.990080 -3.316771) (xy 1.007844 -3.320959)
     (xy 1.022758 -3.319696) )(layer F.SilkS) (width  0.010000)
  )
  (fp_poly (pts (xy -0.581843 -1.570182) (xy -0.534549 -1.548692) (xy -0.488299 -1.514480) (xy -0.447367 -1.471448) (xy -0.416022 -1.423496) (xy -0.411879 -1.414970) (xy -0.397658 -1.368156) (xy -0.392381 -1.313231)
     (xy -0.395931 -1.256389) (xy -0.408194 -1.203827) (xy -0.416148 -1.184018) (xy -0.450138 -1.129514) (xy -0.495742 -1.083125) (xy -0.548333 -1.049328) (xy -0.584320 -1.037259) (xy -0.629516 -1.029445)
     (xy -0.677831 -1.026249) (xy -0.723174 -1.028036) (xy -0.759454 -1.035170) (xy -0.763093 -1.036473) (xy -0.781339 -1.044890) (xy -0.804906 -1.057535) (xy -0.829243 -1.071711) (xy -0.849800 -1.084721)
     (xy -0.862026 -1.093867) (xy -0.863600 -1.096061) (xy -0.855812 -1.096779) (xy -0.835164 -1.097238) (xy -0.805725 -1.097359) (xy -0.797983 -1.097330) (xy -0.757886 -1.098463) (xy -0.726924 -1.103332)
     (xy -0.697452 -1.113402) (xy -0.684784 -1.119022) (xy -0.624002 -1.155544) (xy -0.576217 -1.202360) (xy -0.542163 -1.258467) (xy -0.522577 -1.322861) (xy -0.519558 -1.344348) (xy -0.521247 -1.408462)
     (xy -0.539232 -1.472538) (xy -0.571241 -1.532082) (xy -0.586687 -1.555653) (xy -0.593096 -1.568075) (xy -0.591209 -1.572020) (xy -0.581843 -1.570182) )(layer F.SilkS) (width  0.010000)
  )
  (fp_poly (pts (xy -0.756631 -1.569550) (xy -0.731387 -1.565310) (xy -0.708788 -1.556059) (xy -0.689593 -1.544943) (xy -0.646097 -1.509344) (xy -0.615692 -1.466313) (xy -0.598054 -1.418479) (xy -0.592860 -1.368471)
     (xy -0.599785 -1.318919) (xy -0.618505 -1.272453) (xy -0.648696 -1.231703) (xy -0.690033 -1.199298) (xy -0.734573 -1.180012) (xy -0.774509 -1.170822) (xy -0.809570 -1.170630) (xy -0.848881 -1.179500)
     (xy -0.853255 -1.180844) (xy -0.902994 -1.203941) (xy -0.942765 -1.239745) (xy -0.968425 -1.278116) (xy -0.981160 -1.303630) (xy -0.987964 -1.325422) (xy -0.990189 -1.350399) (xy -0.989237 -1.384434)
     (xy -0.986342 -1.420389) (xy -0.980759 -1.445983) (xy -0.970585 -1.467770) (xy -0.960567 -1.483050) (xy -0.937714 -1.509209) (xy -0.908448 -1.534693) (xy -0.893635 -1.544967) (xy -0.868430 -1.559061)
     (xy -0.845826 -1.566829) (xy -0.818714 -1.570055) (xy -0.791633 -1.570567) (xy -0.756631 -1.569550) )(layer F.SilkS) (width  0.010000)
  )
  (fp_poly (pts (xy 0.600697 -3.539239) (xy 0.636838 -3.524433) (xy 0.674626 -3.508020) (xy 0.710845 -3.491518) (xy 0.742277 -3.476443) (xy 0.765704 -3.464310) (xy 0.777907 -3.456638) (xy 0.778934 -3.455240)
     (xy 0.771943 -3.449396) (xy 0.752881 -3.437305) (xy 0.724610 -3.420701) (xy 0.689996 -3.401315) (xy 0.687917 -3.400176) (xy 0.578133 -3.338806) (xy 0.474840 -3.278145) (xy 0.375020 -3.216198)
     (xy 0.275654 -3.150975) (xy 0.173726 -3.080481) (xy 0.066216 -3.002724) (xy -0.049893 -2.915712) (xy -0.076200 -2.895658) (xy -0.153599 -2.836694) (xy -0.218811 -2.787534) (xy -0.272932 -2.747482)
     (xy -0.317061 -2.715841) (xy -0.352295 -2.691916) (xy -0.379730 -2.675009) (xy -0.400464 -2.664425) (xy -0.415595 -2.659468) (xy -0.426219 -2.659440) (xy -0.433434 -2.663646) (xy -0.436176 -2.667232)
     (xy -0.436650 -2.683484) (xy -0.425110 -2.709396) (xy -0.402601 -2.743845) (xy -0.370168 -2.785711) (xy -0.328855 -2.833872) (xy -0.279707 -2.887207) (xy -0.223770 -2.944595) (xy -0.162086 -3.004913)
     (xy -0.095702 -3.067042) (xy -0.025661 -3.129859) (xy 0.046991 -3.192244) (xy 0.073571 -3.214370) (xy 0.127796 -3.257668) (xy 0.192152 -3.306711) (xy 0.262334 -3.358390) (xy 0.334037 -3.409596)
     (xy 0.402957 -3.457221) (xy 0.464789 -3.498156) (xy 0.479625 -3.507605) (xy 0.557082 -3.556430) (xy 0.600697 -3.539239) )(layer F.SilkS) (width  0.010000)
  )
  (fp_poly (pts (xy -6.048408 2.363713) (xy -5.986805 2.364737) (xy -5.939541 2.365925) (xy -5.904020 2.367526) (xy -5.877646 2.369784) (xy -5.857825 2.372945) (xy -5.841961 2.377257) (xy -5.827460 2.382964)
     (xy -5.822708 2.385114) (xy -5.784995 2.407790) (xy -5.744751 2.440522) (xy -5.706757 2.478645) (xy -5.675794 2.517493) (xy -5.660478 2.543419) (xy -5.644310 2.591320) (xy -5.635263 2.648877)
     (xy -5.633280 2.710803) (xy -5.638305 2.771806) (xy -5.650281 2.826599) (xy -5.663861 2.860571) (xy -5.683529 2.889636) (xy -5.713263 2.923295) (xy -5.748633 2.957393) (xy -5.785210 2.987772)
     (xy -5.818564 3.010276) (xy -5.829300 3.015819) (xy -5.844527 3.022288) (xy -5.859914 3.027203) (xy -5.878112 3.030825) (xy -5.901772 3.033418) (xy -5.933545 3.035243) (xy -5.976083 3.036561)
     (xy -6.032036 3.037634) (xy -6.053666 3.037976) (xy -6.235700 3.040769) (xy -6.263216 3.012231) (xy -6.290733 2.983694) (xy -6.290733 2.446866) (xy -6.206066 2.446866) (xy -6.206066 2.956542)
     (xy -6.060016 2.952898) (xy -6.001981 2.951094) (xy -5.957823 2.948760) (xy -5.924488 2.945573) (xy -5.898922 2.941212) (xy -5.878070 2.935354) (xy -5.871633 2.933010) (xy -5.839418 2.916276)
     (xy -5.805570 2.891849) (xy -5.789582 2.877452) (xy -5.756415 2.836472) (xy -5.735327 2.789825) (xy -5.725394 2.734607) (xy -5.725226 2.675219) (xy -5.734839 2.611622) (xy -5.756078 2.559640)
     (xy -5.789672 2.517925) (xy -5.824624 2.491828) (xy -5.854244 2.475748) (xy -5.884660 2.463857) (xy -5.919079 2.455590) (xy -5.960708 2.450379) (xy -6.012756 2.447660) (xy -6.078429 2.446867)
     (xy -6.079483 2.446866) (xy -6.206066 2.446866) (xy -6.290733 2.446866) (xy -6.290733 2.416322) (xy -6.233649 2.360994) (xy -6.048408 2.363713) )(layer F.SilkS) (width  0.010000)
  )
)
